<?xml version="1.0" encoding="UTF-8" standalone="no"?>
<!-- Created with Inkscape (http://www.inkscape.org/) -->

<svg
   width="335.54459mm"
   height="209.80038mm"
   viewBox="0 0 335.54459 209.80038"
   version="1.1"
   id="svg1235"
   inkscape:version="1.1.2 (0a00cf5339, 2022-02-04)"
   sodipodi:docname="06_555_monostable.svg"
   xmlns:inkscape="http://www.inkscape.org/namespaces/inkscape"
   xmlns:sodipodi="http://sodipodi.sourceforge.net/DTD/sodipodi-0.dtd"
   xmlns="http://www.w3.org/2000/svg"
   xmlns:svg="http://www.w3.org/2000/svg">
  <sodipodi:namedview
     id="namedview1237"
     pagecolor="#505050"
     bordercolor="#ffffff"
     borderopacity="1"
     inkscape:pageshadow="0"
     inkscape:pageopacity="0"
     inkscape:pagecheckerboard="1"
     inkscape:document-units="mm"
     showgrid="false"
     fit-margin-top="0"
     fit-margin-left="0"
     fit-margin-right="0"
     fit-margin-bottom="0"
     inkscape:zoom="0.73940797"
     inkscape:cx="219.77042"
     inkscape:cy="493.63817"
     inkscape:window-width="1920"
     inkscape:window-height="1012"
     inkscape:window-x="0"
     inkscape:window-y="0"
     inkscape:window-maximized="1"
     inkscape:current-layer="layer1" />
  <defs
     id="defs1232">
    <marker
       style="overflow:visible"
       id="Arrow2Mend-3"
       refX="0"
       refY="0"
       orient="auto"
       inkscape:stockid="Arrow2Mend"
       inkscape:isstock="true">
      <path
         transform="scale(-0.6)"
         d="M 8.7185878,4.0337352 -2.2072895,0.01601326 8.7185884,-4.0017078 c -1.7454984,2.3720609 -1.7354408,5.6174519 -6e-7,8.035443 z"
         style="fill:context-stroke;fill-rule:evenodd;stroke:context-stroke;stroke-width:0.625;stroke-linejoin:round"
         id="path178223-1" />
    </marker>
    <marker
       style="overflow:visible"
       id="Arrow2Mend-0-1"
       refX="0"
       refY="0"
       orient="auto"
       inkscape:stockid="Arrow2Mend"
       inkscape:isstock="true">
      <path
         transform="scale(-0.6)"
         d="M 8.7185878,4.0337352 -2.2072895,0.01601326 8.7185884,-4.0017078 c -1.7454984,2.3720609 -1.7354408,5.6174519 -6e-7,8.035443 z"
         style="fill:context-stroke;fill-rule:evenodd;stroke:context-stroke;stroke-width:0.625;stroke-linejoin:round"
         id="path178223-8-0" />
    </marker>
  </defs>
  <g
     inkscape:label="Calque 1"
     inkscape:groupmode="layer"
     id="layer1"
     transform="translate(81.177113,-17.835948)">
    <g
       id="g680"
       transform="translate(-22.733059,-406.92217)">
      <rect
         style="fill:#ffffff;fill-opacity:1;stroke:none;stroke-width:0.633477;stroke-linecap:round;stroke-linejoin:miter;stroke-miterlimit:4;stroke-dasharray:2.53392, 5.06784;stroke-dashoffset:0"
         id="rect159889-5-4"
         width="335.54459"
         height="209.80038"
         x="-58.444054"
         y="424.75812" />
      <g
         id="g177705-4-0"
         transform="translate(278.43822,-0.50661536)">
        <path
           style="fill:#0000ff;stroke:#0000ff;stroke-width:0.9;stroke-linecap:round;stroke-linejoin:miter;stroke-miterlimit:4;stroke-dasharray:none;stroke-opacity:1"
           d="m -27.690971,606.41258 h 5.74729"
           id="path72774-1-0-3" />
        <path
           style="fill:#0000ff;stroke:#0000ff;stroke-width:0.9;stroke-linecap:round;stroke-linejoin:miter;stroke-miterlimit:4;stroke-dasharray:none;stroke-opacity:1"
           d="m -26.920581,607.84456 h 4.2065"
           id="path72776-7-6-9" />
        <path
           style="fill:#0000ff;stroke:#0000ff;stroke-width:0.9;stroke-linecap:round;stroke-linejoin:miter;stroke-miterlimit:4;stroke-dasharray:none;stroke-opacity:1"
           d="m -26.106011,609.27651 h 2.57737"
           id="path72778-2-2-1" />
        <path
           style="fill:#0000ff;stroke:#0000ff;stroke-width:0.9;stroke-linecap:round;stroke-linejoin:miter;stroke-miterlimit:4;stroke-dasharray:none;stroke-opacity:1"
           d="M -24.817331,606.37107 V 603.8441"
           id="path72911-7-99-9" />
      </g>
      <path
         style="fill:none;stroke:#0000ff;stroke-width:0.9;stroke-linecap:round;stroke-linejoin:round;stroke-miterlimit:4;stroke-dasharray:none;stroke-opacity:1"
         d="m 253.65443,584.47314 5.3e-4,-1.92855 -1.77615,-1.23113 3.29351,-1.83124 -3.27374,-1.59555 3.24996,-1.78027 -3.28615,-1.69252 3.29487,-1.62528 -1.48013,-1.20791 -0.0337,-2.50267"
         id="path69421-49-2-6"
         sodipodi:nodetypes="cccccccccc" />
      <g
         id="g175136-9"
         transform="translate(32.100628,314.00647)">
        <text
           xml:space="preserve"
           style="font-size:5.64444px;line-height:1.25;font-family:sans-serif;-inkscape-font-specification:sans-serif;letter-spacing:0px;word-spacing:0px;fill:#0000ff;stroke-width:0.264583"
           x="-71.232437"
           y="279.37274"
           id="text172541-5-3"><tspan
             sodipodi:role="line"
             id="tspan172539-9-3"
             style="fill:#0000ff;stroke-width:0.264583"
             x="-71.232437"
             y="279.37274">S</tspan></text>
        <circle
           style="fill:none;fill-opacity:1;stroke:#0000ff;stroke-width:0.5;stroke-linecap:round;stroke-linejoin:round;stroke-miterlimit:4;stroke-dasharray:none;stroke-dashoffset:0"
           id="path173349-7-8"
           cx="-69.412048"
           cy="277.31808"
           r="5.229651" />
      </g>
      <g
         id="g177705-0">
        <path
           style="fill:#0000ff;stroke:#0000ff;stroke-width:0.9;stroke-linecap:round;stroke-linejoin:miter;stroke-miterlimit:4;stroke-dasharray:none;stroke-opacity:1"
           d="m -27.690971,606.41258 h 5.74729"
           id="path72774-1-5" />
        <path
           style="fill:#0000ff;stroke:#0000ff;stroke-width:0.9;stroke-linecap:round;stroke-linejoin:miter;stroke-miterlimit:4;stroke-dasharray:none;stroke-opacity:1"
           d="m -26.920581,607.84456 h 4.2065"
           id="path72776-7-66" />
        <path
           style="fill:#0000ff;stroke:#0000ff;stroke-width:0.9;stroke-linecap:round;stroke-linejoin:miter;stroke-miterlimit:4;stroke-dasharray:none;stroke-opacity:1"
           d="m -26.106011,609.27651 h 2.57737"
           id="path72778-2-4" />
        <path
           style="fill:#0000ff;stroke:#0000ff;stroke-width:0.9;stroke-linecap:round;stroke-linejoin:miter;stroke-miterlimit:4;stroke-dasharray:none;stroke-opacity:1"
           d="M -24.817331,606.37107 V 603.8441"
           id="path72911-7-0" />
      </g>
      <path
         style="fill:none;stroke:#0000ff;stroke-width:0.9;stroke-linecap:round;stroke-linejoin:round;stroke-miterlimit:4;stroke-dasharray:none;stroke-opacity:1"
         d="m -24.721611,573.12078 5.3e-4,-1.92855 -1.77615,-1.23113 3.29351,-1.83124 -3.27374,-1.59555 3.24996,-1.78027 -3.28615,-1.69252 3.29487,-1.62528 -1.48013,-1.20791 -0.0337,-2.50267"
         id="path69421-49-0"
         sodipodi:nodetypes="cccccccccc" />
      <path
         sodipodi:type="star"
         id="path69-0-4"
         inkscape:flatsided="false"
         sodipodi:sides="3"
         sodipodi:cx="262.12796"
         sodipodi:cy="494.64664"
         sodipodi:r1="73.109612"
         sodipodi:r2="36.554806"
         sodipodi:arg1="0"
         sodipodi:arg2="1.0471976"
         inkscape:rounded="0"
         inkscape:randomized="0"
         transform="matrix(0.1889081,0,0,0.17786307,55.537658,446.04006)"
         inkscape:transform-center-x="-3.4527503"
         style="fill:#00aa88;stroke:#000000;stroke-width:2.76234;stroke-miterlimit:4;stroke-dasharray:none"
         d="m 335.23757,494.64664 -54.83221,31.65739 -54.83221,31.65739 0,-63.31478 0,-63.31478 54.83221,31.65739 z" />
      <text
         xml:space="preserve"
         style="font-size:6.18198px;line-height:1.25;font-family:'Bitstream Vera Sans Mono';-inkscape-font-specification:'Bitstream Vera Sans Mono';letter-spacing:0px;word-spacing:0px;fill:#d5f6ff;stroke-width:0.15455"
         x="99.430336"
         y="531.26941"
         id="text9398-9-6"><tspan
           sodipodi:role="line"
           style="fill:#d5f6ff;stroke-width:0.15455"
           x="99.430336"
           y="531.26941"
           id="tspan9400-6-2">+ </tspan></text>
      <text
         xml:space="preserve"
         style="font-size:6.18198px;line-height:1.25;font-family:'Bitstream Vera Sans Mono';-inkscape-font-specification:'Bitstream Vera Sans Mono';letter-spacing:0px;word-spacing:0px;fill:#d5f6ff;stroke-width:0.15455"
         x="99.563148"
         y="540.59155"
         id="text43624-3-6"><tspan
           sodipodi:role="line"
           id="tspan43622-8-7"
           style="fill:#d5f6ff;stroke-width:0.15455"
           x="99.563148"
           y="540.59155">-</tspan></text>
      <path
         sodipodi:type="star"
         id="path69-3-5-5"
         inkscape:flatsided="false"
         sodipodi:sides="3"
         sodipodi:cx="262.12796"
         sodipodi:cy="494.64664"
         sodipodi:r1="73.109612"
         sodipodi:r2="36.554806"
         sodipodi:arg1="0"
         sodipodi:arg2="1.0471976"
         inkscape:rounded="0"
         inkscape:randomized="0"
         transform="matrix(0.1889081,0,0,0.17786307,55.537658,485.37)"
         inkscape:transform-center-x="-3.4527503"
         style="fill:#00aa88;stroke:#000000;stroke-width:2.76234;stroke-miterlimit:4;stroke-dasharray:none"
         d="m 335.23757,494.64664 -54.83221,31.65739 -54.83221,31.65739 0,-63.31478 0,-63.31478 54.83221,31.65739 z" />
      <text
         xml:space="preserve"
         style="font-size:6.18198px;line-height:1.25;font-family:'Bitstream Vera Sans Mono';-inkscape-font-specification:'Bitstream Vera Sans Mono';letter-spacing:0px;word-spacing:0px;fill:#d5f6ff;stroke-width:0.15455"
         x="99.430336"
         y="570.59937"
         id="text9398-1-6-6"><tspan
           sodipodi:role="line"
           style="fill:#d5f6ff;stroke-width:0.15455"
           x="99.430336"
           y="570.59937"
           id="tspan9400-9-1-9">+ </tspan></text>
      <text
         xml:space="preserve"
         style="font-size:6.18198px;line-height:1.25;font-family:'Bitstream Vera Sans Mono';-inkscape-font-specification:'Bitstream Vera Sans Mono';letter-spacing:0px;word-spacing:0px;fill:#d5f6ff;stroke-width:0.15455"
         x="99.563148"
         y="579.92151"
         id="text43624-4-1-8"><tspan
           sodipodi:role="line"
           id="tspan43622-7-5-7"
           style="fill:#d5f6ff;stroke-width:0.15455"
           x="99.563148"
           y="579.92151">-</tspan></text>
      <rect
         style="fill:#00aad4;stroke:#000000;stroke-width:0.499999;stroke-miterlimit:4;stroke-dasharray:none"
         id="rect46761-9-2"
         width="23.190262"
         height="39.445847"
         x="144.12395"
         y="534.08783" />
      <text
         xml:space="preserve"
         style="font-size:4.85196px;line-height:1.25;font-family:sans-serif;-inkscape-font-specification:sans-serif;letter-spacing:0px;word-spacing:0px;fill:#d5f6ff;stroke-width:0.121299"
         x="147.00145"
         y="543.40588"
         id="text57029-8-8"><tspan
           sodipodi:role="line"
           id="tspan57027-4-2"
           style="fill:#d5f6ff;stroke-width:0.121299"
           x="147.00145"
           y="543.40588">R</tspan></text>
      <text
         xml:space="preserve"
         style="font-size:4.85196px;line-height:1.25;font-family:sans-serif;-inkscape-font-specification:sans-serif;letter-spacing:0px;word-spacing:0px;fill:#d5f6ff;stroke-width:0.121299"
         x="147.29048"
         y="567.17084"
         id="text58997-8-9"><tspan
           sodipodi:role="line"
           id="tspan58995-1-9"
           style="fill:#d5f6ff;stroke-width:0.121299"
           x="147.29048"
           y="567.17084">S</tspan></text>
      <text
         xml:space="preserve"
         style="font-size:4.85196px;line-height:1.25;font-family:sans-serif;-inkscape-font-specification:sans-serif;letter-spacing:0px;word-spacing:0px;fill:#d5f6ff;stroke-width:0.121299"
         x="160.75127"
         y="543.12512"
         id="text60807-0-6"><tspan
           sodipodi:role="line"
           id="tspan60805-3-0"
           style="fill:#d5f6ff;stroke-width:0.121299"
           x="160.75127"
           y="543.12512">Q</tspan></text>
      <text
         xml:space="preserve"
         style="font-size:4.85196px;line-height:1.25;font-family:sans-serif;-inkscape-font-specification:sans-serif;letter-spacing:0px;word-spacing:0px;fill:#d5f6ff;stroke-width:0.121299"
         x="160.75125"
         y="567.42145"
         id="text60035-0-2"><tspan
           sodipodi:role="line"
           id="tspan60033-4-7"
           style="fill:#d5f6ff;stroke-width:0.121299"
           x="160.75125"
           y="567.42145">Q</tspan></text>
      <path
         style="fill:#d7eef4;stroke:#d7eef4;stroke-width:0.395185;stroke-linecap:butt;stroke-linejoin:miter;stroke-opacity:1"
         d="m 161.16445,563.3103 h 2.99264"
         id="path64484-4-6" />
      <circle
         style="fill:none;fill-opacity:1;stroke:#000000;stroke-width:0.9;stroke-miterlimit:4;stroke-dasharray:none"
         id="path64955-3-4-1"
         cx="155.71909"
         cy="492.73987"
         r="1.1241155" />
      <circle
         style="fill:none;fill-opacity:1;stroke:#000000;stroke-width:0.9;stroke-miterlimit:4;stroke-dasharray:none"
         id="path64955-2-4-3"
         cx="206.90274"
         cy="492.73987"
         r="1.1241155" />
      <circle
         style="fill:none;fill-opacity:1;stroke:#000000;stroke-width:0.9;stroke-miterlimit:4;stroke-dasharray:none"
         id="path64955-0-7-2"
         cx="83.842468"
         cy="492.73987"
         r="1.1241155" />
      <circle
         style="fill:none;fill-opacity:1;stroke:#000000;stroke-width:0.9;stroke-miterlimit:4;stroke-dasharray:none"
         id="path64955-6-6-1"
         cx="69.887047"
         cy="492.73987"
         r="1.1241155" />
      <circle
         style="fill:none;fill-opacity:1;stroke:#000000;stroke-width:0.9;stroke-miterlimit:4;stroke-dasharray:none"
         id="path64955-1-3-5"
         cx="30.525597"
         cy="529.55182"
         r="1.1241155" />
      <circle
         style="fill:none;fill-opacity:1;stroke:#000000;stroke-width:0.9;stroke-miterlimit:4;stroke-dasharray:none"
         id="path64955-5-1-9"
         cx="30.525597"
         cy="578.28314"
         r="1.1241155" />
      <circle
         style="fill:none;fill-opacity:1;stroke:#000000;stroke-width:0.9;stroke-miterlimit:4;stroke-dasharray:none"
         id="path64955-54-7-9"
         cx="69.617332"
         cy="610.10858"
         r="1.1241155" />
      <circle
         style="fill:none;fill-opacity:1;stroke:#000000;stroke-width:0.9;stroke-miterlimit:4;stroke-dasharray:none"
         id="path64955-7-5-1"
         cx="239.14127"
         cy="566.38635"
         r="1.1241155" />
      <circle
         style="fill:none;fill-opacity:1;stroke:#000000;stroke-width:0.9;stroke-miterlimit:4;stroke-dasharray:none"
         id="path64955-65-9-4"
         cx="193.23219"
         cy="566.29474"
         r="1.1241155" />
      <circle
         style="fill:none;fill-opacity:1;stroke:#000000;stroke-width:0.9;stroke-miterlimit:4;stroke-dasharray:none"
         id="path64955-69-6-9"
         cx="169.13832"
         cy="566.29474"
         r="1.1241155" />
      <circle
         style="fill:none;fill-opacity:1;stroke:#000000;stroke-width:0.9;stroke-miterlimit:4;stroke-dasharray:none"
         id="path64955-37-2-1"
         cx="155.71909"
         cy="532.26373"
         r="1.1241155" />
      <circle
         style="fill:#000000;fill-opacity:1;stroke:#000000;stroke-width:0.81419;stroke-miterlimit:4;stroke-dasharray:none"
         id="path64955-8-8-1-0"
         cx="83.925705"
         cy="539.14203"
         r="1.0169374" />
      <circle
         style="fill:#000000;fill-opacity:1;stroke:#000000;stroke-width:0.81419;stroke-miterlimit:4;stroke-dasharray:none"
         id="path64955-8-4-7-7"
         cx="69.617332"
         cy="539.1474"
         r="1.0169374" />
      <circle
         style="fill:#000000;fill-opacity:1;stroke:#000000;stroke-width:0.81419;stroke-miterlimit:4;stroke-dasharray:none"
         id="path64955-8-5-8-5"
         cx="69.617332"
         cy="569.3158"
         r="1.0169374" />
      <circle
         style="fill:#000000;fill-opacity:1;stroke:#000000;stroke-width:0.81419;stroke-miterlimit:4;stroke-dasharray:none"
         id="path64955-8-2-5-8"
         cx="180.81476"
         cy="566.29474"
         r="1.0169374" />
      <path
         style="fill:none;stroke:#000000;stroke-width:0.9;stroke-linecap:round;stroke-linejoin:round;stroke-miterlimit:4;stroke-dasharray:none;stroke-opacity:1"
         d="m 69.659509,524.17336 5.3e-4,-1.92855 -1.77615,-1.23113 3.29351,-1.83124 -3.27374,-1.59555 3.24996,-1.78027 -3.28615,-1.69252 3.29487,-1.62528 -1.48013,-1.20791 -0.0337,-2.50267"
         id="path69421-7-7"
         sodipodi:nodetypes="cccccccccc" />
      <path
         style="fill:none;stroke:#000000;stroke-width:0.9;stroke-linecap:round;stroke-linejoin:round;stroke-miterlimit:4;stroke-dasharray:none;stroke-opacity:1"
         d="m 69.659509,561.14846 5.3e-4,-1.92855 -1.77615,-1.23113 3.29351,-1.83124 -3.27374,-1.59555 3.24996,-1.78027 -3.28615,-1.69252 3.29487,-1.62528 -1.48013,-1.20791 -0.0337,-2.50267"
         id="path69421-8-4-0"
         sodipodi:nodetypes="cccccccccc" />
      <path
         style="fill:none;stroke:#000000;stroke-width:0.9;stroke-linecap:round;stroke-linejoin:round;stroke-miterlimit:4;stroke-dasharray:none;stroke-opacity:1"
         d="m 69.659509,598.69589 5.3e-4,-1.92855 -1.77615,-1.23113 3.29351,-1.83124 -3.27374,-1.59555 3.24996,-1.78027 -3.28615,-1.69252 3.29487,-1.62528 -1.48013,-1.20791 -0.0337,-2.50267"
         id="path69421-4-1-4"
         sodipodi:nodetypes="cccccccccc" />
      <path
         style="fill:none;stroke:#000000;stroke-width:0.9;stroke-linecap:round;stroke-linejoin:round;stroke-miterlimit:4;stroke-dasharray:none;stroke-opacity:1"
         d="m 205.25716,532.47717 1.57959,2.64174 -3.04907,-0.38189"
         id="path71629-8-8"
         sodipodi:nodetypes="ccc" />
      <path
         style="fill:none;stroke:#000000;stroke-width:0.9;stroke-linecap:round;stroke-linejoin:round;stroke-miterlimit:4;stroke-dasharray:none;stroke-opacity:1"
         d="m 206.90275,515.03235 v 5.74129 l -5.80833,3.91611 v 6.42052 l 5.85362,4.19096 -0.009,3.35242"
         id="path71235-5-0"
         sodipodi:nodetypes="cccccc" />
      <path
         style="fill:none;stroke:#000000;stroke-width:0.9;stroke-linecap:round;stroke-linejoin:round;stroke-miterlimit:4;stroke-dasharray:none;stroke-opacity:1"
         d="m 201.02809,522.34359 v 10.71449"
         id="path71352-9-4" />
      <path
         style="fill:none;stroke:#000000;stroke-width:0.9;stroke-linecap:round;stroke-linejoin:round;stroke-miterlimit:4;stroke-dasharray:none;stroke-opacity:1"
         d="m 196.71849,527.77329 h 4.2166"
         id="path71354-7-2" />
      <path
         style="fill:none;stroke:#000000;stroke-width:0.9;stroke-linecap:round;stroke-linejoin:miter;stroke-miterlimit:4;stroke-dasharray:none;stroke-opacity:1"
         d="m 204.0654,541.22213 h 5.74729"
         id="path72774-5-9" />
      <path
         style="fill:none;stroke:#000000;stroke-width:0.9;stroke-linecap:round;stroke-linejoin:miter;stroke-miterlimit:4;stroke-dasharray:none;stroke-opacity:1"
         d="m 204.83579,542.65411 h 4.2065"
         id="path72776-3-6" />
      <path
         style="fill:none;stroke:#000000;stroke-width:0.9;stroke-linecap:round;stroke-linejoin:miter;stroke-miterlimit:4;stroke-dasharray:none;stroke-opacity:1"
         d="m 205.65036,544.08606 h 2.57737"
         id="path72778-8-1" />
      <path
         style="fill:none;stroke:#000000;stroke-width:0.9;stroke-linecap:round;stroke-linejoin:miter;stroke-miterlimit:4;stroke-dasharray:none;stroke-opacity:1"
         d="m 206.93904,541.18062 v -2.52697"
         id="path72911-8-0" />
      <rect
         style="fill:#ff6600;fill-opacity:1;stroke:#000000;stroke-width:0.5;stroke-linecap:round;stroke-linejoin:miter;stroke-miterlimit:4;stroke-dasharray:none"
         id="rect75054-3-4"
         width="24.441061"
         height="12.281726"
         x="195.0563"
         y="560.15387" />
      <text
         xml:space="preserve"
         style="font-size:4.13752px;line-height:1.25;font-family:sans-serif;-inkscape-font-specification:sans-serif;letter-spacing:0px;word-spacing:0px;fill:#ffffff;stroke-width:0.103438"
         x="198.72299"
         y="567.80084"
         id="text74464-1-2"><tspan
           sodipodi:role="line"
           id="tspan74462-8-2"
           style="fill:#ffffff;stroke-width:0.103438"
           x="198.72299"
           y="567.80084">OUTPUT</tspan></text>
      <text
         xml:space="preserve"
         style="font-size:4.23333px;line-height:1.25;font-family:sans-serif;-inkscape-font-specification:sans-serif;letter-spacing:0px;word-spacing:0px;stroke-width:0.264583"
         x="87.391174"
         y="489.16431"
         id="text77809-9-2"><tspan
           sodipodi:role="line"
           id="tspan77807-6-0"
           style="font-size:4.23333px;stroke-width:0.264583"
           x="87.391174"
           y="489.16431">CONTROL</tspan><tspan
           sodipodi:role="line"
           style="font-size:4.23333px;stroke-width:0.264583"
           x="87.391174"
           y="494.45596"
           id="tspan77833-4-5">VOLTAGE</tspan></text>
      <text
         xml:space="preserve"
         style="font-size:4.23333px;line-height:1.25;font-family:sans-serif;-inkscape-font-specification:sans-serif;letter-spacing:0px;word-spacing:0px;stroke-width:0.264583"
         x="158.28209"
         y="492.66776"
         id="text89147-3-5"><tspan
           sodipodi:role="line"
           id="tspan89145-3-2"
           style="stroke-width:0.264583"
           x="158.28209"
           y="492.66776">RESET</tspan><tspan
           sodipodi:role="line"
           style="stroke-width:0.264583"
           x="158.28209"
           y="497.95941"
           id="tspan89149-3-9" /></text>
      <text
         xml:space="preserve"
         style="font-size:4.23333px;line-height:1.25;font-family:sans-serif;-inkscape-font-specification:sans-serif;letter-spacing:0px;word-spacing:0px;stroke-width:0.264583"
         x="209.61246"
         y="492.66776"
         id="text93619-8-0"><tspan
           sodipodi:role="line"
           id="tspan93617-6-2"
           style="stroke-width:0.264583"
           x="209.61246"
           y="492.66776">DISCHARGE</tspan><tspan
           sodipodi:role="line"
           style="stroke-width:0.264583"
           x="209.61246"
           y="497.95941"
           id="tspan93621-0-8" /></text>
      <text
         xml:space="preserve"
         style="font-size:4.23333px;line-height:1.25;font-family:sans-serif;-inkscape-font-specification:sans-serif;letter-spacing:0px;word-spacing:0px;stroke-width:0.264583"
         x="58.817947"
         y="492.63986"
         id="text95143-4-3"><tspan
           sodipodi:role="line"
           id="tspan95141-8-8"
           style="stroke-width:0.264583"
           x="58.817947"
           y="492.63986">Vcc</tspan></text>
      <text
         xml:space="preserve"
         style="font-size:4.23333px;line-height:1.25;font-family:sans-serif;-inkscape-font-specification:sans-serif;letter-spacing:0px;word-spacing:0px;stroke-width:0.264583"
         x="5.4444351"
         y="525.74738"
         id="text100181-8-0"><tspan
           sodipodi:role="line"
           style="stroke-width:0.264583"
           x="5.4444351"
           y="525.74738"
           id="tspan165165-8-4">THRESHOLD</tspan></text>
      <text
         xml:space="preserve"
         style="font-size:4.23333px;line-height:1.25;font-family:sans-serif;-inkscape-font-specification:sans-serif;letter-spacing:0px;word-spacing:0px;stroke-width:0.264583"
         x="12.569588"
         y="574.57556"
         id="text103061-9-0"><tspan
           sodipodi:role="line"
           id="tspan103059-7-9"
           style="stroke-width:0.264583"
           x="12.569588"
           y="574.57556">TRIGGER</tspan><tspan
           sodipodi:role="line"
           style="stroke-width:0.264583"
           x="12.569588"
           y="579.86725"
           id="tspan103063-7-1" /></text>
      <text
         xml:space="preserve"
         style="font-size:4.23333px;line-height:1.25;font-family:sans-serif;-inkscape-font-specification:sans-serif;letter-spacing:0px;word-spacing:0px;stroke-width:0.264583"
         x="238.89427"
         y="563.16486"
         id="text112897-6-9"><tspan
           sodipodi:role="line"
           id="tspan112895-4-6"
           style="stroke-width:0.264583"
           x="238.89427"
           y="563.16486">OUT</tspan><tspan
           sodipodi:role="line"
           style="stroke-width:0.264583"
           x="238.89427"
           y="568.45654"
           id="tspan112899-3-2" /></text>
      <text
         xml:space="preserve"
         style="font-size:4.23333px;line-height:1.25;font-family:sans-serif;-inkscape-font-specification:sans-serif;letter-spacing:0px;word-spacing:0px;stroke-width:0.264583"
         x="64.770088"
         y="617.64935"
         id="text114537-0-5"><tspan
           sodipodi:role="line"
           id="tspan114535-3-4"
           style="stroke-width:0.264583"
           x="64.770088"
           y="617.64935">GND</tspan></text>
      <text
         xml:space="preserve"
         style="font-size:4.23333px;line-height:1.25;font-family:sans-serif;-inkscape-font-specification:sans-serif;letter-spacing:0px;word-spacing:0px;stroke-width:0.264583"
         x="63.851341"
         y="608.43115"
         id="text120003-5-0-4"><tspan
           sodipodi:role="line"
           id="tspan120001-4-9-9"
           style="stroke-width:0.264583"
           x="63.851341"
           y="608.43115">1</tspan></text>
      <text
         xml:space="preserve"
         style="font-size:4.23333px;line-height:1.25;font-family:sans-serif;-inkscape-font-specification:sans-serif;letter-spacing:0px;word-spacing:0px;stroke-width:0.264583"
         x="32.471397"
         y="583.76868"
         id="text121473-7-2-9"><tspan
           sodipodi:role="line"
           id="tspan121471-4-5-3"
           style="stroke-width:0.264583"
           x="32.471397"
           y="583.76868">2</tspan></text>
      <text
         xml:space="preserve"
         style="font-size:4.23333px;line-height:1.25;font-family:sans-serif;-inkscape-font-specification:sans-serif;letter-spacing:0px;word-spacing:0px;stroke-width:0.264583"
         x="233.68886"
         y="564.46985"
         id="text122291-4-4-6"><tspan
           sodipodi:role="line"
           id="tspan122289-3-0-0"
           style="stroke-width:0.264583"
           x="233.68886"
           y="564.46985">3</tspan></text>
      <text
         xml:space="preserve"
         style="font-size:4.23333px;line-height:1.25;font-family:sans-serif;-inkscape-font-specification:sans-serif;letter-spacing:0px;word-spacing:0px;stroke-width:0.264583"
         x="150.85707"
         y="497.39062"
         id="text123153-0-5-5"><tspan
           sodipodi:role="line"
           id="tspan123151-7-9-0"
           style="stroke-width:0.264583"
           x="150.85707"
           y="497.39062">4</tspan></text>
      <text
         xml:space="preserve"
         style="font-size:4.23333px;line-height:1.25;font-family:sans-serif;-inkscape-font-specification:sans-serif;letter-spacing:0px;word-spacing:0px;stroke-width:0.264583"
         x="78.410591"
         y="497.36066"
         id="text123553-8-4-2"><tspan
           sodipodi:role="line"
           id="tspan123551-6-6-9"
           style="stroke-width:0.264583"
           x="78.410591"
           y="497.36066">5</tspan></text>
      <text
         xml:space="preserve"
         style="font-size:4.23333px;line-height:1.25;font-family:sans-serif;-inkscape-font-specification:sans-serif;letter-spacing:0px;word-spacing:0px;stroke-width:0.264583"
         x="32.400093"
         y="534.96759"
         id="text124811-8-9-4"><tspan
           sodipodi:role="line"
           id="tspan124809-8-2-3"
           style="stroke-width:0.264583"
           x="32.400093"
           y="534.96759">6</tspan></text>
      <text
         xml:space="preserve"
         style="font-size:4.23333px;line-height:1.25;font-family:sans-serif;-inkscape-font-specification:sans-serif;letter-spacing:0px;word-spacing:0px;stroke-width:0.264583"
         x="201.47304"
         y="497.39062"
         id="text125739-4-2-5"><tspan
           sodipodi:role="line"
           id="tspan125737-3-4-1"
           style="stroke-width:0.264583"
           x="201.47304"
           y="497.39062">7</tspan></text>
      <text
         xml:space="preserve"
         style="font-size:4.23333px;line-height:1.25;font-family:sans-serif;-inkscape-font-specification:sans-serif;letter-spacing:0px;word-spacing:0px;stroke-width:0.264583"
         x="64.841133"
         y="497.38858"
         id="text126513-1-7-7"><tspan
           sodipodi:role="line"
           id="tspan126511-4-7-4"
           style="stroke-width:0.264583"
           x="64.841133"
           y="497.38858">8</tspan></text>
      <text
         xml:space="preserve"
         style="font-size:4.93889px;line-height:1.25;font-family:sans-serif;-inkscape-font-specification:sans-serif;letter-spacing:0px;word-spacing:0px;fill:#ff7f2a;stroke:#ff7f2a;stroke-width:0.264583"
         x="50.824463"
         y="487.5174"
         id="text133293-5-3"><tspan
           sodipodi:role="line"
           id="tspan133291-4-1"
           style="font-size:4.93889px;fill:#ff7f2a;stroke:#ff7f2a;stroke-width:0.264583"
           x="50.824463"
           y="487.5174">5V-15V</tspan></text>
      <text
         xml:space="preserve"
         style="font-size:4.93889px;line-height:1.25;font-family:sans-serif;-inkscape-font-specification:sans-serif;letter-spacing:0px;word-spacing:0px;fill:#ff7f2a;stroke:#ff7f2a;stroke-width:0.264583"
         x="59.542076"
         y="518.18317"
         id="text133293-9-8-4"><tspan
           sodipodi:role="line"
           id="tspan133291-7-1-6"
           style="font-size:4.93889px;fill:#ff7f2a;stroke:#ff7f2a;stroke-width:0.264583"
           x="59.542076"
           y="518.18317">5k</tspan></text>
      <text
         xml:space="preserve"
         style="font-size:4.93889px;line-height:1.25;font-family:sans-serif;-inkscape-font-specification:sans-serif;letter-spacing:0px;word-spacing:0px;fill:#ff7f2a;stroke:#ff7f2a;stroke-width:0.264583"
         x="60.183853"
         y="554.56268"
         id="text133293-9-3-2-9"><tspan
           sodipodi:role="line"
           id="tspan133291-7-6-8-4"
           style="font-size:4.93889px;fill:#ff7f2a;stroke:#ff7f2a;stroke-width:0.264583"
           x="60.183853"
           y="554.56268">5k</tspan></text>
      <text
         xml:space="preserve"
         style="font-size:4.93889px;line-height:1.25;font-family:sans-serif;-inkscape-font-specification:sans-serif;letter-spacing:0px;word-spacing:0px;fill:#ff7f2a;stroke:#ff7f2a;stroke-width:0.264583"
         x="59.903778"
         y="593.34259"
         id="text133293-9-1-9-2"><tspan
           sodipodi:role="line"
           id="tspan133291-7-06-3-2"
           style="font-size:4.93889px;fill:#ff7f2a;stroke:#ff7f2a;stroke-width:0.264583"
           x="59.903778"
           y="593.34259">5k</tspan></text>
      <text
         xml:space="preserve"
         style="font-size:4.93889px;line-height:1.25;font-family:sans-serif;-inkscape-font-specification:sans-serif;letter-spacing:0px;word-spacing:0px;fill:#ff7f2a;stroke:#ff7f2a;stroke-width:0.264583"
         x="47.272057"
         y="539.73547"
         id="text133293-3-6-6"><tspan
           sodipodi:role="line"
           id="tspan133291-6-8-4"
           style="font-size:4.93889px;fill:#ff7f2a;stroke:#ff7f2a;stroke-width:0.264583"
           x="47.272057"
           y="539.73547">2/3 Vcc</tspan></text>
      <text
         xml:space="preserve"
         style="font-size:4.93889px;line-height:1.25;font-family:sans-serif;-inkscape-font-specification:sans-serif;letter-spacing:0px;word-spacing:0px;fill:#ff7f2a;stroke:#ff7f2a;stroke-width:0.264583"
         x="47.776337"
         y="569.6543"
         id="text133293-1-0-1"><tspan
           sodipodi:role="line"
           id="tspan133291-2-2-2"
           style="font-size:4.93889px;fill:#ff7f2a;stroke:#ff7f2a;stroke-width:0.264583"
           x="47.776337"
           y="569.6543">1/3 Vcc</tspan><tspan
           sodipodi:role="line"
           style="font-size:4.93889px;fill:#ff7f2a;stroke:#ff7f2a;stroke-width:0.264583"
           x="47.776337"
           y="575.82788"
           id="tspan151162-1-8" /></text>
      <rect
         style="fill:none;fill-opacity:1;stroke:#000000;stroke-width:0.499999;stroke-linecap:round;stroke-linejoin:miter;stroke-miterlimit:4;stroke-dasharray:2, 3.99999;stroke-dashoffset:0"
         id="rect159683-0-8"
         width="186.58961"
         height="99.233681"
         x="42.098091"
         y="503.19894" />
      <path
         style="fill:none;stroke:#000000;stroke-width:0.9;stroke-linecap:butt;stroke-linejoin:miter;stroke-miterlimit:4;stroke-dasharray:none;stroke-opacity:1"
         d="m 69.659507,598.69589 v 2.25712 7.96172"
         id="path160285-5-9"
         sodipodi:nodetypes="ccc" />
      <path
         style="fill:none;stroke:#000000;stroke-width:0.897454;stroke-linecap:butt;stroke-linejoin:miter;stroke-miterlimit:4;stroke-dasharray:none;stroke-opacity:1"
         d="m 69.648509,583.30077 -0.07584,-14.09916 0.08684,-8.05315"
         id="path160636-1-2"
         sodipodi:nodetypes="ccc" />
      <path
         style="fill:none;stroke:#000000;stroke-width:0.9;stroke-linecap:butt;stroke-linejoin:miter;stroke-miterlimit:4;stroke-dasharray:none;stroke-opacity:1"
         d="m 69.648509,545.75334 -0.03545,-6.60876 0.04645,-14.97122"
         id="path161077-1-8" />
      <path
         style="fill:none;stroke:#000000;stroke-width:0.9;stroke-linecap:butt;stroke-linejoin:miter;stroke-miterlimit:4;stroke-dasharray:none;stroke-opacity:1"
         d="m 69.648509,508.77824 0.09572,-14.84831"
         id="path161112-0-8" />
      <circle
         style="fill:#0000ff;fill-opacity:1;stroke:#0000ff;stroke-width:0.9;stroke-miterlimit:4;stroke-dasharray:none"
         id="path64955-6-5-8"
         cx="-24.494072"
         cy="541.68732"
         r="1.1241155" />
      <text
         xml:space="preserve"
         style="font-size:4.23333px;line-height:1.25;font-family:sans-serif;-inkscape-font-specification:sans-serif;letter-spacing:0px;word-spacing:0px;fill:#0000ff;stroke:#0000ff;stroke-width:0.264583"
         x="-35.563179"
         y="541.58728"
         id="text95143-0-6"><tspan
           sodipodi:role="line"
           id="tspan95141-4-8"
           style="fill:#0000ff;stroke:#0000ff;stroke-width:0.264583"
           x="-35.563179"
           y="541.58728">Vcc</tspan></text>
      <path
         style="fill:#0000ff;stroke:#0000ff;stroke-width:0.9;stroke-linecap:butt;stroke-linejoin:miter;stroke-miterlimit:4;stroke-dasharray:none;stroke-opacity:1"
         d="m -24.732611,557.72566 0.0957,-14.84831"
         id="path161112-8-3" />
      <path
         style="fill:#0000ff;stroke:#0000ff;stroke-width:0.9;stroke-linecap:round;stroke-linejoin:miter;stroke-miterlimit:4;stroke-dasharray:none;stroke-opacity:1"
         d="m -24.817681,603.84345 0.0964,-10.42121"
         id="path161112-8-7-8" />
      <path
         style="fill:#0000ff;stroke:#0000ff;stroke-width:0.9;stroke-linecap:round;stroke-linejoin:miter;stroke-miterlimit:4;stroke-dasharray:none;stroke-opacity:1"
         d="m -24.818191,585.03608 0.0957,-11.92455"
         id="path161112-8-7-2-3" />
      <path
         style="fill:#0000ff;stroke:#0000ff;stroke-width:0.9;stroke-linecap:round;stroke-linejoin:miter;stroke-miterlimit:4;stroke-dasharray:none;stroke-opacity:1"
         d="m -24.823331,593.42224 -4.66044,-7.03565"
         id="path161112-8-7-26-3" />
      <path
         style="fill:none;stroke:#000000;stroke-width:0.9;stroke-linecap:round;stroke-linejoin:miter;stroke-miterlimit:4;stroke-dasharray:none;stroke-opacity:1"
         d="m 31.668149,529.59005 66.49948,-0.184 h -0.17259"
         id="path161561-8-3"
         sodipodi:nodetypes="ccc" />
      <path
         style="fill:none;stroke:#000000;stroke-width:0.9;stroke-linecap:round;stroke-linejoin:miter;stroke-miterlimit:4;stroke-dasharray:none;stroke-opacity:1"
         d="m 31.840799,578.42007 66.49966,-0.0949 -0.17259,-2.3e-4"
         id="path161561-9-5-8"
         sodipodi:nodetypes="ccc" />
      <path
         style="fill:#0000ff;stroke:#0000ff;stroke-width:0.9;stroke-linecap:round;stroke-linejoin:miter;stroke-miterlimit:4;stroke-dasharray:none;stroke-opacity:1"
         d="m -24.452651,578.32782 53.98953,-0.0948 -0.14013,-2.4e-4"
         id="path161561-9-1-0"
         sodipodi:nodetypes="ccc" />
      <path
         style="fill:none;stroke:#000000;stroke-width:0.9;stroke-linecap:butt;stroke-linejoin:miter;stroke-miterlimit:4;stroke-dasharray:none;stroke-opacity:1"
         d="M 69.900035,539.15357 H 97.870059"
         id="path162064-0-4" />
      <path
         style="fill:none;stroke:#000000;stroke-width:0.9;stroke-linecap:round;stroke-linejoin:miter;stroke-miterlimit:4;stroke-dasharray:none;stroke-opacity:1"
         d="m 167.51203,541.74607 h 1.717"
         id="path162064-26-6-7" />
      <path
         style="fill:none;stroke:#000000;stroke-width:0.9;stroke-linecap:butt;stroke-linejoin:miter;stroke-miterlimit:4;stroke-dasharray:none;stroke-opacity:1"
         d="M 70.104521,569.2509 H 98.074549"
         id="path162064-2-4-6" />
      <path
         style="fill:none;stroke:#000000;stroke-width:0.9;stroke-linecap:butt;stroke-linejoin:miter;stroke-miterlimit:4;stroke-dasharray:none;stroke-opacity:1"
         d="m 170.31667,566.40698 h 21.44802"
         id="path162497-6-8" />
      <path
         style="fill:none;stroke:#000000;stroke-width:0.836658;stroke-linecap:butt;stroke-linejoin:miter;stroke-miterlimit:4;stroke-dasharray:none;stroke-opacity:1"
         d="m 219.34778,566.36369 h 18.53525"
         id="path162497-9-2-9" />
      <path
         style="fill:none;stroke:#000000;stroke-width:0.9;stroke-linecap:butt;stroke-linejoin:miter;stroke-miterlimit:4;stroke-dasharray:none;stroke-opacity:1"
         d="m 155.71908,493.97516 v 37.21182"
         id="path162756-5-0" />
      <path
         style="fill:none;stroke:#000000;stroke-width:0.9;stroke-linecap:butt;stroke-linejoin:miter;stroke-miterlimit:4;stroke-dasharray:none;stroke-opacity:1"
         d="m 155.75316,495.09133 v 36.34984"
         id="path162756-0-8-6" />
      <path
         style="fill:none;stroke:#000000;stroke-width:0.9;stroke-linecap:butt;stroke-linejoin:miter;stroke-miterlimit:4;stroke-dasharray:none;stroke-opacity:1"
         d="m 83.939971,493.85801 v 45.53007"
         id="path162756-6-6-8" />
      <path
         style="fill:none;stroke:#000000;stroke-width:0.9;stroke-linecap:butt;stroke-linejoin:miter;stroke-miterlimit:4;stroke-dasharray:none;stroke-opacity:1"
         d="M 206.90274,515.03235 V 493.90829"
         id="path162948-2-7" />
      <path
         style="fill:none;stroke:#000000;stroke-width:0.9;stroke-linecap:butt;stroke-linejoin:miter;stroke-miterlimit:4;stroke-dasharray:none;stroke-opacity:1"
         d="m 180.82638,566.20717 v -38.47482 l 15.8921,0.0409"
         id="path163063-8-9"
         sodipodi:nodetypes="ccc" />
      <path
         style="fill:none;stroke:#000000;stroke-width:0.9;stroke-linecap:round;stroke-linejoin:round;stroke-miterlimit:4;stroke-dasharray:none;stroke-opacity:1"
         d="m 118.86675,534.01942 h 13.50287 v 7.42955 l 11.56426,0.0838"
         id="path163439-4-0" />
      <path
         style="fill:none;stroke:#000000;stroke-width:0.9;stroke-linecap:round;stroke-linejoin:round;stroke-miterlimit:4;stroke-dasharray:none;stroke-opacity:1"
         d="m 118.86675,573.34937 h 13.50287 v -7.42955 l 11.56426,-0.0838"
         id="path163439-6-7-3" />
      <circle
         style="fill:#0000ff;fill-opacity:1;stroke:#0000ff;stroke-width:0.81419;stroke-miterlimit:4;stroke-dasharray:none"
         id="path64955-8-0-3"
         cx="-24.800606"
         cy="578.32385"
         r="1.0169374" />
      <path
         style="fill:#0000ff;stroke:#0000ff;stroke-width:0.9;stroke-linecap:round;stroke-linejoin:miter;stroke-miterlimit:4;stroke-dasharray:none;stroke-opacity:1"
         d="m -26.952221,506.16317 h 5.74729"
         id="path72774-1-6-3" />
      <path
         style="fill:#0000ff;stroke:#0000ff;stroke-width:0.9;stroke-linecap:round;stroke-linejoin:miter;stroke-miterlimit:4;stroke-dasharray:none;stroke-opacity:1"
         d="m -26.181831,507.59515 h 4.2065"
         id="path72776-7-1-7" />
      <path
         style="fill:#0000ff;stroke:#0000ff;stroke-width:0.9;stroke-linecap:round;stroke-linejoin:miter;stroke-miterlimit:4;stroke-dasharray:none;stroke-opacity:1"
         d="m -25.367261,509.0271 h 2.57737"
         id="path72778-2-5-3" />
      <path
         style="fill:#0000ff;stroke:#0000ff;stroke-width:0.9;stroke-linecap:round;stroke-linejoin:miter;stroke-miterlimit:4;stroke-dasharray:none;stroke-opacity:1"
         d="m -24.078581,506.12166 v -2.52697"
         id="path72911-7-9-2" />
      <path
         style="fill:none;stroke:#0000ff;stroke-width:0.9;stroke-linecap:round;stroke-linejoin:round;stroke-miterlimit:4;stroke-dasharray:none;stroke-opacity:1"
         d="m -23.982861,472.87137 5.3e-4,-1.92855 -1.77615,-1.23113 3.29351,-1.83124 -3.27374,-1.59555 3.24996,-1.78027 -3.28615,-1.69252 3.29487,-1.62528 -1.48013,-1.20791 -0.0337,-2.50267"
         id="path69421-49-4-6"
         sodipodi:nodetypes="cccccccccc" />
      <circle
         style="fill:#0000ff;fill-opacity:1;stroke:#0000ff;stroke-width:0.9;stroke-miterlimit:4;stroke-dasharray:none"
         id="path64955-6-5-9-5"
         cx="-23.755333"
         cy="441.43802"
         r="1.1241155" />
      <text
         xml:space="preserve"
         style="font-size:4.23333px;line-height:1.25;font-family:sans-serif;-inkscape-font-specification:sans-serif;letter-spacing:0px;word-spacing:0px;fill:#0000ff;stroke:#0000ff;stroke-width:0.264583"
         x="-34.824425"
         y="441.33801"
         id="text95143-0-0-2"><tspan
           sodipodi:role="line"
           id="tspan95141-4-9-6"
           style="fill:#0000ff;stroke:#0000ff;stroke-width:0.264583"
           x="-34.824425"
           y="441.33801">Vcc      5V</tspan></text>
      <path
         style="fill:#0000ff;stroke:#0000ff;stroke-width:0.9;stroke-linecap:butt;stroke-linejoin:miter;stroke-miterlimit:4;stroke-dasharray:none;stroke-opacity:1"
         d="m -23.993861,457.47625 0.0957,-14.84831"
         id="path161112-8-1-5" />
      <path
         style="fill:#0000ff;stroke:#0000ff;stroke-width:0.9;stroke-linecap:round;stroke-linejoin:miter;stroke-miterlimit:4;stroke-dasharray:none;stroke-opacity:1"
         d="m -24.078931,503.59404 0.0964,-10.42121"
         id="path161112-8-7-7-8" />
      <path
         style="fill:#0000ff;stroke:#0000ff;stroke-width:0.9;stroke-linecap:round;stroke-linejoin:miter;stroke-miterlimit:4;stroke-dasharray:none;stroke-opacity:1"
         d="m -24.079441,489.04809 0.0957,-16.18597"
         id="path161112-8-7-2-7-7" />
      <circle
         style="fill:#0000ff;fill-opacity:1;stroke:#0000ff;stroke-width:0.81419;stroke-miterlimit:4;stroke-dasharray:none"
         id="path64955-8-0-1-6"
         cx="-24.061852"
         cy="478.07458"
         r="1.0169374" />
      <circle
         style="fill:#0000ff;fill-opacity:1;stroke:#0000ff;stroke-width:0.81419;stroke-miterlimit:4;stroke-dasharray:none"
         id="path64955-8-0-1-6-1"
         cx="2.4828556"
         cy="478.07458"
         r="1.0169374" />
      <path
         style="fill:none;stroke:#0000ff;stroke-width:0.9;stroke-linecap:butt;stroke-linejoin:miter;stroke-miterlimit:4;stroke-dasharray:none;stroke-opacity:1"
         d="M -24.088206,478.24107 H 206.80822 v 13.44564"
         id="path168764-0" />
      <g
         id="g178159-8"
         transform="translate(16.823001,2.0822823)">
        <path
           sodipodi:type="star"
           style="opacity:1;fill:none;fill-opacity:1;stroke:#0000ff;stroke-width:2.94709;stroke-linecap:round;stroke-linejoin:round;stroke-miterlimit:4;stroke-dasharray:none;stroke-dashoffset:0"
           id="path177789-7"
           inkscape:flatsided="false"
           sodipodi:sides="3"
           sodipodi:cx="892.45941"
           sodipodi:cy="2231.3889"
           sodipodi:r1="15.007423"
           sodipodi:r2="7.5037117"
           sodipodi:arg1="1.5707963"
           sodipodi:arg2="2.6179939"
           inkscape:rounded="0"
           inkscape:randomized="0"
           transform="matrix(0.30538584,0,0,0.30538584,-35.845733,-91.697163)"
           inkscape:transform-center-x="5.5251937e-06"
           inkscape:transform-center-y="1.1457508"
           d="m 892.45941,2246.3963 -6.4984,-11.2555 -6.49841,-11.2556 12.99681,0 12.99681,0 -6.4984,11.2556 z" />
        <path
           style="fill:#0000ff;stroke:#0000ff;stroke-width:0.9;stroke-linecap:round;stroke-linejoin:round;stroke-miterlimit:4;stroke-dasharray:none;stroke-opacity:1"
           d="m 232.42137,594.89839 h 8.73864"
           id="path177904-0" />
      </g>
      <path
         style="fill:#0000ff;stroke:#0000ff;stroke-width:0.4;stroke-linecap:butt;stroke-linejoin:miter;stroke-miterlimit:4;stroke-dasharray:none;stroke-opacity:1;marker-end:url(#Arrow2Mend-3)"
         d="m 258.47696,593.74536 2.99787,3.65016"
         id="path178194-8" />
      <path
         style="fill:#0000ff;stroke:#0000ff;stroke-width:0.4;stroke-linecap:butt;stroke-linejoin:miter;stroke-miterlimit:4;stroke-dasharray:none;stroke-opacity:1;marker-end:url(#Arrow2Mend-0-1)"
         d="m 260.23689,592.48741 2.99787,3.65016"
         id="path178194-1-6"
         inkscape:transform-center-x="0.6543042"
         inkscape:transform-center-y="0.36638603" />
      <path
         style="fill:none;stroke:#0000ff;stroke-width:0.898377;stroke-linecap:butt;stroke-linejoin:round;stroke-miterlimit:4;stroke-dasharray:none;stroke-opacity:1"
         d="m 240.44594,566.55787 h 13.19832 v 2.67152"
         id="path178893-2" />
      <path
         style="fill:none;stroke:#0000ff;stroke-width:0.9;stroke-linecap:butt;stroke-linejoin:miter;stroke-miterlimit:4;stroke-dasharray:none;stroke-opacity:1"
         d="m 253.65443,584.47312 v 5.10749"
         id="path178895-4" />
      <path
         style="fill:none;stroke:#0000ff;stroke-width:0.9;stroke-linecap:butt;stroke-linejoin:miter;stroke-miterlimit:4;stroke-dasharray:none;stroke-opacity:1"
         d="m 253.61369,596.40273 v 7.31547"
         id="path178897-7" />
      <text
         xml:space="preserve"
         style="font-size:5.64444px;line-height:1.25;font-family:sans-serif;-inkscape-font-specification:sans-serif;letter-spacing:0px;word-spacing:0px;fill:#0000ff;stroke-width:0.264583"
         x="256.57513"
         y="578.33557"
         id="text181267-9"><tspan
           sodipodi:role="line"
           id="tspan181265-3"
           style="fill:#0000ff;stroke-width:0.264583"
           x="256.57513"
           y="578.33557">68Ω</tspan></text>
      <text
         xml:space="preserve"
         style="font-size:6.35px;line-height:1.25;font-family:sans-serif;-inkscape-font-specification:sans-serif;letter-spacing:0px;word-spacing:0px;fill:#ff0000;stroke-width:0.264583"
         x="28.902964"
         y="436.02179"
         id="text191475-9"><tspan
           sodipodi:role="line"
           id="tspan191473-2"
           style="font-size:6.35px;fill:#ff0000;stroke-width:0.264583"
           x="28.902964"
           y="436.02179">555 - montage monostable (minuterie d'une led après appuie sur Set )</tspan></text>
      <path
         style="font-variation-settings:normal;fill:#0000ff;fill-opacity:1;stroke:#0000ff;stroke-width:0.9;stroke-linecap:round;stroke-linejoin:miter;stroke-miterlimit:4;stroke-dasharray:none;stroke-dashoffset:0;stroke-opacity:1;stop-color:#000000"
         d="m -28.134952,489.5817 h 8.206722"
         id="path228307" />
      <path
         style="fill:#0000ff;stroke:#0000ff;stroke-width:0.9;stroke-linecap:round;stroke-linejoin:miter;stroke-miterlimit:4;stroke-dasharray:none;stroke-opacity:1"
         d="m -28.134952,492.63013 h 8.206722"
         id="path228307-3" />
      <path
         style="fill:none;stroke:#0000ff;stroke-width:0.9;stroke-linecap:round;stroke-linejoin:round;stroke-miterlimit:4;stroke-dasharray:none;stroke-opacity:1"
         d="M 31.668148,529.59005 H 2.2024604 L 2.5997268,478.5094"
         id="path229349" />
    </g>
  </g>
</svg>
