<?xml version="1.0" encoding="UTF-8" standalone="no"?>
<!-- Created with Inkscape (http://www.inkscape.org/) -->

<svg
   width="210mm"
   height="297mm"
   viewBox="0 0 210 297"
   version="1.1"
   id="svg5"
   inkscape:version="1.1.2 (0a00cf5339, 2022-02-04)"
   sodipodi:docname="shema.svg"
   xmlns:inkscape="http://www.inkscape.org/namespaces/inkscape"
   xmlns:sodipodi="http://sodipodi.sourceforge.net/DTD/sodipodi-0.dtd"
   xmlns="http://www.w3.org/2000/svg"
   xmlns:svg="http://www.w3.org/2000/svg">
  <sodipodi:namedview
     id="namedview7"
     pagecolor="#505050"
     bordercolor="#eeeeee"
     borderopacity="1"
     inkscape:pageshadow="0"
     inkscape:pageopacity="0"
     inkscape:pagecheckerboard="0"
     inkscape:document-units="mm"
     showgrid="false"
     inkscape:snap-global="true"
     inkscape:zoom="0.73940797"
     inkscape:cx="590.33716"
     inkscape:cy="1817.6704"
     inkscape:window-width="1920"
     inkscape:window-height="1012"
     inkscape:window-x="0"
     inkscape:window-y="0"
     inkscape:window-maximized="1"
     inkscape:current-layer="layer1" />
  <defs
     id="defs2">
    <marker
       style="overflow:visible;"
       id="Arrow2Mend"
       refX="0.0"
       refY="0.0"
       orient="auto"
       inkscape:stockid="Arrow2Mend"
       inkscape:isstock="true">
      <path
         transform="scale(0.6) rotate(180) translate(0,0)"
         d="M 8.7185878,4.0337352 L -2.2072895,0.016013256 L 8.7185884,-4.0017078 C 6.9730900,-1.6296469 6.9831476,1.6157441 8.7185878,4.0337352 z "
         style="stroke:context-stroke;fill-rule:evenodd;fill:context-stroke;stroke-width:0.62500000;stroke-linejoin:round;"
         id="path178223" />
    </marker>
    <marker
       style="overflow:visible;"
       id="Arrow1Mend"
       refX="0.0"
       refY="0.0"
       orient="auto"
       inkscape:stockid="Arrow1Mend"
       inkscape:isstock="true">
      <path
         transform="scale(0.4) rotate(180) translate(10,0)"
         style="fill-rule:evenodd;fill:context-stroke;stroke:context-stroke;stroke-width:1.0pt;"
         d="M 0.0,0.0 L 5.0,-5.0 L -12.5,0.0 L 5.0,5.0 L 0.0,0.0 z "
         id="path178205" />
    </marker>
    <marker
       style="overflow:visible;"
       id="Arrow1Lend"
       refX="0.0"
       refY="0.0"
       orient="auto"
       inkscape:stockid="Arrow1Lend"
       inkscape:isstock="true">
      <path
         transform="scale(0.8) rotate(180) translate(12.5,0)"
         style="fill-rule:evenodd;fill:context-stroke;stroke:context-stroke;stroke-width:1.0pt;"
         d="M 0.0,0.0 L 5.0,-5.0 L -12.5,0.0 L 5.0,5.0 L 0.0,0.0 z "
         id="path178199" />
    </marker>
    <marker
       style="overflow:visible"
       id="Arrow2Mend-0"
       refX="0"
       refY="0"
       orient="auto"
       inkscape:stockid="Arrow2Mend"
       inkscape:isstock="true">
      <path
         transform="scale(-0.6)"
         d="M 8.7185878,4.0337352 -2.2072895,0.01601326 8.7185884,-4.0017078 c -1.7454984,2.3720609 -1.7354408,5.6174519 -6e-7,8.035443 z"
         style="fill:context-stroke;fill-rule:evenodd;stroke:context-stroke;stroke-width:0.625;stroke-linejoin:round"
         id="path178223-8" />
    </marker>
  </defs>
  <g
     inkscape:label="Calque 1"
     inkscape:groupmode="layer"
     id="layer1">
    <text
       xml:space="preserve"
       style="font-size:10.5833px;line-height:1.25;font-family:'Bitstream Vera Sans Mono';-inkscape-font-specification:'Bitstream Vera Sans Mono';letter-spacing:0px;word-spacing:0px;stroke-width:0.264583"
       x="90.813637"
       y="104.16666"
       id="text48307"><tspan
         sodipodi:role="line"
         id="tspan48305"
         style="stroke-width:0.264583"
         x="90.813637"
         y="104.16666"></tspan></text>
    <circle
       style="fill:none;fill-opacity:1;stroke:#000000;stroke-width:0.9;stroke-miterlimit:4;stroke-dasharray:none"
       id="path64955"
       cx="99.112938"
       cy="95.611328"
       r="1.1241155" />
    <circle
       style="fill:#000000;fill-opacity:1;stroke:#000000;stroke-width:0.81419;stroke-miterlimit:4;stroke-dasharray:none"
       id="path64955-8"
       cx="90.260864"
       cy="96.152893"
       r="1.0169374" />
    <text
       xml:space="preserve"
       style="font-size:4.23333px;line-height:1.25;font-family:sans-serif;-inkscape-font-specification:sans-serif;letter-spacing:0px;word-spacing:0px;stroke-width:0.264583"
       x="96.236465"
       y="105.35648"
       id="text120003"><tspan
         sodipodi:role="line"
         id="tspan120001"
         style="stroke-width:0.264583"
         x="96.236465"
         y="105.35648">1</tspan></text>
    <text
       xml:space="preserve"
       style="font-size:4.23333px;line-height:1.25;font-family:sans-serif;-inkscape-font-specification:sans-serif;letter-spacing:0px;word-spacing:0px;stroke-width:0.264583"
       x="97.010422"
       y="109.48711"
       id="text121473"><tspan
         sodipodi:role="line"
         id="tspan121471"
         style="stroke-width:0.264583"
         x="97.010422"
         y="109.48711">2</tspan></text>
    <text
       xml:space="preserve"
       style="font-size:4.23333px;line-height:1.25;font-family:sans-serif;-inkscape-font-specification:sans-serif;letter-spacing:0px;word-spacing:0px;stroke-width:0.264583"
       x="97.393852"
       y="113.74054"
       id="text122291"><tspan
         sodipodi:role="line"
         id="tspan122289"
         style="stroke-width:0.264583"
         x="97.393852"
         y="113.74054">3</tspan></text>
    <text
       xml:space="preserve"
       style="font-size:4.23333px;line-height:1.25;font-family:sans-serif;-inkscape-font-specification:sans-serif;letter-spacing:0px;word-spacing:0px;stroke-width:0.264583"
       x="97.841171"
       y="119.18111"
       id="text123153"><tspan
         sodipodi:role="line"
         id="tspan123151"
         style="stroke-width:0.264583"
         x="97.841171"
         y="119.18111">4</tspan></text>
    <text
       xml:space="preserve"
       style="font-size:4.23333px;line-height:1.25;font-family:sans-serif;-inkscape-font-specification:sans-serif;letter-spacing:0px;word-spacing:0px;stroke-width:0.264583"
       x="101.42775"
       y="124.71469"
       id="text123553"><tspan
         sodipodi:role="line"
         id="tspan123551"
         style="stroke-width:0.264583"
         x="101.42775"
         y="124.71469">5</tspan></text>
    <text
       xml:space="preserve"
       style="font-size:4.23333px;line-height:1.25;font-family:sans-serif;-inkscape-font-specification:sans-serif;letter-spacing:0px;word-spacing:0px;stroke-width:0.264583"
       x="109.50865"
       y="102.26682"
       id="text124811"><tspan
         sodipodi:role="line"
         id="tspan124809"
         style="stroke-width:0.264583"
         x="109.50865"
         y="102.26682">6</tspan></text>
    <text
       xml:space="preserve"
       style="font-size:4.23333px;line-height:1.25;font-family:sans-serif;-inkscape-font-specification:sans-serif;letter-spacing:0px;word-spacing:0px;stroke-width:0.264583"
       x="109.24477"
       y="107.95766"
       id="text125739"><tspan
         sodipodi:role="line"
         id="tspan125737"
         style="stroke-width:0.264583"
         x="109.24477"
         y="107.95766">7</tspan></text>
    <text
       xml:space="preserve"
       style="font-size:4.23333px;line-height:1.25;font-family:sans-serif;-inkscape-font-specification:sans-serif;letter-spacing:0px;word-spacing:0px;stroke-width:0.264583"
       x="110.15318"
       y="111.36121"
       id="text126513"><tspan
         sodipodi:role="line"
         id="tspan126511"
         style="stroke-width:0.264583"
         x="110.15318"
         y="111.36121">8</tspan></text>
    <g
       id="g177069">
      <rect
         style="fill:#ffffff;fill-opacity:1;stroke:none;stroke-width:0.498903;stroke-linecap:round;stroke-linejoin:miter;stroke-miterlimit:4;stroke-dasharray:1.99562, 3.99124;stroke-dashoffset:0"
         id="rect159889"
         width="282.13629"
         height="154.76308"
         x="-11.365145"
         y="184.8082" />
      <path
         sodipodi:type="star"
         id="path69"
         inkscape:flatsided="false"
         sodipodi:sides="3"
         sodipodi:cx="262.12796"
         sodipodi:cy="494.64664"
         sodipodi:r1="73.109612"
         sodipodi:r2="36.554806"
         sodipodi:arg1="0"
         sodipodi:arg2="1.0471976"
         inkscape:rounded="0"
         inkscape:randomized="0"
         transform="matrix(0.1889081,0,0,0.17786307,58.818729,158.79862)"
         inkscape:transform-center-x="-3.4527503"
         style="fill:#00aa88;stroke:#000000;stroke-width:2.76234;stroke-miterlimit:4;stroke-dasharray:none"
         d="m 335.23757,494.64664 -54.83221,31.65739 -54.83221,31.65739 0,-63.31478 0,-63.31478 54.83221,31.65739 z" />
      <text
         xml:space="preserve"
         style="font-size:6.18198px;line-height:1.25;font-family:'Bitstream Vera Sans Mono';-inkscape-font-specification:'Bitstream Vera Sans Mono';letter-spacing:0px;word-spacing:0px;fill:#d5f6ff;stroke-width:0.15455"
         x="102.71141"
         y="244.028"
         id="text9398"><tspan
           sodipodi:role="line"
           style="fill:#d5f6ff;stroke-width:0.15455"
           x="102.71141"
           y="244.028"
           id="tspan9400">+ </tspan></text>
      <text
         xml:space="preserve"
         style="font-size:6.18198px;line-height:1.25;font-family:'Bitstream Vera Sans Mono';-inkscape-font-specification:'Bitstream Vera Sans Mono';letter-spacing:0px;word-spacing:0px;fill:#d5f6ff;stroke-width:0.15455"
         x="102.84422"
         y="253.35011"
         id="text43624"><tspan
           sodipodi:role="line"
           id="tspan43622"
           style="fill:#d5f6ff;stroke-width:0.15455"
           x="102.84422"
           y="253.35011">-</tspan></text>
      <path
         sodipodi:type="star"
         id="path69-3"
         inkscape:flatsided="false"
         sodipodi:sides="3"
         sodipodi:cx="262.12796"
         sodipodi:cy="494.64664"
         sodipodi:r1="73.109612"
         sodipodi:r2="36.554806"
         sodipodi:arg1="0"
         sodipodi:arg2="1.0471976"
         inkscape:rounded="0"
         inkscape:randomized="0"
         transform="matrix(0.1889081,0,0,0.17786307,58.818729,198.12856)"
         inkscape:transform-center-x="-3.4527503"
         style="fill:#00aa88;stroke:#000000;stroke-width:2.76234;stroke-miterlimit:4;stroke-dasharray:none"
         d="m 335.23757,494.64664 -54.83221,31.65739 -54.83221,31.65739 0,-63.31478 0,-63.31478 54.83221,31.65739 z" />
      <text
         xml:space="preserve"
         style="font-size:6.18198px;line-height:1.25;font-family:'Bitstream Vera Sans Mono';-inkscape-font-specification:'Bitstream Vera Sans Mono';letter-spacing:0px;word-spacing:0px;fill:#d5f6ff;stroke-width:0.15455"
         x="102.71141"
         y="283.35794"
         id="text9398-1"><tspan
           sodipodi:role="line"
           style="fill:#d5f6ff;stroke-width:0.15455"
           x="102.71141"
           y="283.35794"
           id="tspan9400-9">+ </tspan></text>
      <text
         xml:space="preserve"
         style="font-size:6.18198px;line-height:1.25;font-family:'Bitstream Vera Sans Mono';-inkscape-font-specification:'Bitstream Vera Sans Mono';letter-spacing:0px;word-spacing:0px;fill:#d5f6ff;stroke-width:0.15455"
         x="102.84422"
         y="292.68005"
         id="text43624-4"><tspan
           sodipodi:role="line"
           id="tspan43622-7"
           style="fill:#d5f6ff;stroke-width:0.15455"
           x="102.84422"
           y="292.68005">-</tspan></text>
      <rect
         style="fill:#00aad4;stroke:#000000;stroke-width:0.499999;stroke-miterlimit:4;stroke-dasharray:none"
         id="rect46761"
         width="23.190262"
         height="39.445847"
         x="147.40501"
         y="246.84639" />
      <text
         xml:space="preserve"
         style="font-size:4.85196px;line-height:1.25;font-family:sans-serif;-inkscape-font-specification:sans-serif;letter-spacing:0px;word-spacing:0px;fill:#d5f6ff;stroke-width:0.121299"
         x="150.28252"
         y="256.16443"
         id="text57029"><tspan
           sodipodi:role="line"
           id="tspan57027"
           style="fill:#d5f6ff;stroke-width:0.121299"
           x="150.28252"
           y="256.16443">R</tspan></text>
      <text
         xml:space="preserve"
         style="font-size:4.85196px;line-height:1.25;font-family:sans-serif;-inkscape-font-specification:sans-serif;letter-spacing:0px;word-spacing:0px;fill:#d5f6ff;stroke-width:0.121299"
         x="150.57155"
         y="279.92941"
         id="text58997"><tspan
           sodipodi:role="line"
           id="tspan58995"
           style="fill:#d5f6ff;stroke-width:0.121299"
           x="150.57155"
           y="279.92941">S</tspan></text>
      <text
         xml:space="preserve"
         style="font-size:4.85196px;line-height:1.25;font-family:sans-serif;-inkscape-font-specification:sans-serif;letter-spacing:0px;word-spacing:0px;fill:#d5f6ff;stroke-width:0.121299"
         x="164.03233"
         y="255.88368"
         id="text60807"><tspan
           sodipodi:role="line"
           id="tspan60805"
           style="fill:#d5f6ff;stroke-width:0.121299"
           x="164.03233"
           y="255.88368">Q</tspan></text>
      <text
         xml:space="preserve"
         style="font-size:4.85196px;line-height:1.25;font-family:sans-serif;-inkscape-font-specification:sans-serif;letter-spacing:0px;word-spacing:0px;fill:#d5f6ff;stroke-width:0.121299"
         x="164.03232"
         y="280.17999"
         id="text60035"><tspan
           sodipodi:role="line"
           id="tspan60033"
           style="fill:#d5f6ff;stroke-width:0.121299"
           x="164.03232"
           y="280.17999">Q</tspan></text>
      <path
         style="fill:#d7eef4;stroke:#d7eef4;stroke-width:0.395185;stroke-linecap:butt;stroke-linejoin:miter;stroke-opacity:1"
         d="m 164.44552,276.06886 h 2.99264"
         id="path64484" />
      <circle
         style="fill:none;fill-opacity:1;stroke:#000000;stroke-width:0.9;stroke-miterlimit:4;stroke-dasharray:none"
         id="path64955-3"
         cx="159.00015"
         cy="205.49844"
         r="1.1241155" />
      <circle
         style="fill:none;fill-opacity:1;stroke:#000000;stroke-width:0.9;stroke-miterlimit:4;stroke-dasharray:none"
         id="path64955-2"
         cx="210.18381"
         cy="205.49844"
         r="1.1241155" />
      <circle
         style="fill:none;fill-opacity:1;stroke:#000000;stroke-width:0.9;stroke-miterlimit:4;stroke-dasharray:none"
         id="path64955-0"
         cx="87.123535"
         cy="205.49844"
         r="1.1241155" />
      <circle
         style="fill:none;fill-opacity:1;stroke:#000000;stroke-width:0.9;stroke-miterlimit:4;stroke-dasharray:none"
         id="path64955-6"
         cx="73.168114"
         cy="205.49844"
         r="1.1241155" />
      <circle
         style="fill:none;fill-opacity:1;stroke:#000000;stroke-width:0.9;stroke-miterlimit:4;stroke-dasharray:none"
         id="path64955-1"
         cx="33.806667"
         cy="242.31039"
         r="1.1241155" />
      <circle
         style="fill:none;fill-opacity:1;stroke:#000000;stroke-width:0.9;stroke-miterlimit:4;stroke-dasharray:none"
         id="path64955-5"
         cx="33.806667"
         cy="291.04172"
         r="1.1241155" />
      <circle
         style="fill:none;fill-opacity:1;stroke:#000000;stroke-width:0.9;stroke-miterlimit:4;stroke-dasharray:none"
         id="path64955-54"
         cx="72.898399"
         cy="322.86716"
         r="1.1241155" />
      <circle
         style="fill:none;fill-opacity:1;stroke:#000000;stroke-width:0.9;stroke-miterlimit:4;stroke-dasharray:none"
         id="path64955-7"
         cx="242.42233"
         cy="279.14493"
         r="1.1241155" />
      <circle
         style="fill:none;fill-opacity:1;stroke:#000000;stroke-width:0.9;stroke-miterlimit:4;stroke-dasharray:none"
         id="path64955-65"
         cx="196.51326"
         cy="279.05328"
         r="1.1241155" />
      <circle
         style="fill:none;fill-opacity:1;stroke:#000000;stroke-width:0.9;stroke-miterlimit:4;stroke-dasharray:none"
         id="path64955-69"
         cx="172.41939"
         cy="279.05328"
         r="1.1241155" />
      <circle
         style="fill:none;fill-opacity:1;stroke:#000000;stroke-width:0.9;stroke-miterlimit:4;stroke-dasharray:none"
         id="path64955-37"
         cx="159.00015"
         cy="245.02228"
         r="1.1241155" />
      <circle
         style="fill:#000000;fill-opacity:1;stroke:#000000;stroke-width:0.81419;stroke-miterlimit:4;stroke-dasharray:none"
         id="path64955-8-8"
         cx="87.206772"
         cy="251.9006"
         r="1.0169374" />
      <circle
         style="fill:#000000;fill-opacity:1;stroke:#000000;stroke-width:0.81419;stroke-miterlimit:4;stroke-dasharray:none"
         id="path64955-8-4"
         cx="72.898399"
         cy="251.90594"
         r="1.0169374" />
      <circle
         style="fill:#000000;fill-opacity:1;stroke:#000000;stroke-width:0.81419;stroke-miterlimit:4;stroke-dasharray:none"
         id="path64955-8-5"
         cx="72.898399"
         cy="282.07437"
         r="1.0169374" />
      <circle
         style="fill:#000000;fill-opacity:1;stroke:#000000;stroke-width:0.81419;stroke-miterlimit:4;stroke-dasharray:none"
         id="path64955-8-2"
         cx="184.09583"
         cy="279.05328"
         r="1.0169374" />
      <path
         style="fill:none;stroke:#000000;stroke-width:0.9;stroke-linecap:round;stroke-linejoin:round;stroke-miterlimit:4;stroke-dasharray:none;stroke-opacity:1"
         d="m 72.94058,236.93192 5.3e-4,-1.92855 -1.77615,-1.23113 3.29351,-1.83124 -3.27374,-1.59555 3.24996,-1.78027 -3.28615,-1.69252 3.29487,-1.62528 -1.48013,-1.20791 -0.0337,-2.50267"
         id="path69421"
         sodipodi:nodetypes="cccccccccc" />
      <path
         style="fill:none;stroke:#000000;stroke-width:0.9;stroke-linecap:round;stroke-linejoin:round;stroke-miterlimit:4;stroke-dasharray:none;stroke-opacity:1"
         d="m 72.94058,273.90702 5.3e-4,-1.92855 -1.77615,-1.23113 3.29351,-1.83124 -3.27374,-1.59555 3.24996,-1.78027 -3.28615,-1.69252 3.29487,-1.62528 -1.48013,-1.20791 -0.0337,-2.50267"
         id="path69421-8"
         sodipodi:nodetypes="cccccccccc" />
      <path
         style="fill:none;stroke:#000000;stroke-width:0.9;stroke-linecap:round;stroke-linejoin:round;stroke-miterlimit:4;stroke-dasharray:none;stroke-opacity:1"
         d="m 72.94058,311.45445 5.3e-4,-1.92855 -1.77615,-1.23113 3.29351,-1.83124 -3.27374,-1.59555 3.24996,-1.78027 -3.28615,-1.69252 3.29487,-1.62528 -1.48013,-1.20791 -0.0337,-2.50267"
         id="path69421-4"
         sodipodi:nodetypes="cccccccccc" />
      <path
         style="fill:none;stroke:#000000;stroke-width:0.9;stroke-linecap:round;stroke-linejoin:round;stroke-miterlimit:4;stroke-dasharray:none;stroke-opacity:1"
         d="m 208.53823,245.23573 1.57959,2.64174 -3.04907,-0.38189"
         id="path71629"
         sodipodi:nodetypes="ccc" />
      <path
         style="fill:none;stroke:#000000;stroke-width:0.9;stroke-linecap:round;stroke-linejoin:round;stroke-miterlimit:4;stroke-dasharray:none;stroke-opacity:1"
         d="m 210.18382,227.79091 v 5.74129 l -5.80833,3.91611 v 6.42052 l 5.85362,4.19096 -0.009,3.35242"
         id="path71235"
         sodipodi:nodetypes="cccccc" />
      <path
         style="fill:none;stroke:#000000;stroke-width:0.9;stroke-linecap:round;stroke-linejoin:round;stroke-miterlimit:4;stroke-dasharray:none;stroke-opacity:1"
         d="m 204.30916,235.10215 v 10.71449"
         id="path71352" />
      <path
         style="fill:none;stroke:#000000;stroke-width:0.9;stroke-linecap:round;stroke-linejoin:round;stroke-miterlimit:4;stroke-dasharray:none;stroke-opacity:1"
         d="m 199.99956,240.53185 h 4.2166"
         id="path71354" />
      <path
         style="fill:none;stroke:#000000;stroke-width:0.9;stroke-linecap:round;stroke-linejoin:miter;stroke-miterlimit:4;stroke-dasharray:none;stroke-opacity:1"
         d="m 207.34647,253.98069 h 5.74729"
         id="path72774" />
      <path
         style="fill:none;stroke:#000000;stroke-width:0.9;stroke-linecap:round;stroke-linejoin:miter;stroke-miterlimit:4;stroke-dasharray:none;stroke-opacity:1"
         d="m 208.11686,255.41267 h 4.2065"
         id="path72776" />
      <path
         style="fill:none;stroke:#000000;stroke-width:0.9;stroke-linecap:round;stroke-linejoin:miter;stroke-miterlimit:4;stroke-dasharray:none;stroke-opacity:1"
         d="m 208.93143,256.84462 h 2.57737"
         id="path72778" />
      <path
         style="fill:none;stroke:#000000;stroke-width:0.9;stroke-linecap:round;stroke-linejoin:miter;stroke-miterlimit:4;stroke-dasharray:none;stroke-opacity:1"
         d="m 210.22011,253.93918 v -2.52697"
         id="path72911" />
      <rect
         style="fill:#ff6600;fill-opacity:1;stroke:#000000;stroke-width:0.5;stroke-linecap:round;stroke-linejoin:miter;stroke-miterlimit:4;stroke-dasharray:none"
         id="rect75054"
         width="24.441061"
         height="12.281726"
         x="198.33737"
         y="272.91241" />
      <text
         xml:space="preserve"
         style="font-size:4.13752px;line-height:1.25;font-family:sans-serif;-inkscape-font-specification:sans-serif;letter-spacing:0px;word-spacing:0px;fill:#ffffff;stroke-width:0.103438"
         x="202.00406"
         y="280.55939"
         id="text74464"><tspan
           sodipodi:role="line"
           id="tspan74462"
           style="fill:#ffffff;stroke-width:0.103438"
           x="202.00406"
           y="280.55939">OUTPUT</tspan></text>
      <text
         xml:space="preserve"
         style="font-size:4.23333px;line-height:1.25;font-family:sans-serif;-inkscape-font-specification:sans-serif;letter-spacing:0px;word-spacing:0px;stroke-width:0.264583"
         x="90.672241"
         y="201.92288"
         id="text77809"><tspan
           sodipodi:role="line"
           id="tspan77807"
           style="font-size:4.23333px;stroke-width:0.264583"
           x="90.672241"
           y="201.92288">CONTROL</tspan><tspan
           sodipodi:role="line"
           style="font-size:4.23333px;stroke-width:0.264583"
           x="90.672241"
           y="207.21454"
           id="tspan77833">VOLTAGE</tspan></text>
      <text
         xml:space="preserve"
         style="font-size:4.23333px;line-height:1.25;font-family:sans-serif;-inkscape-font-specification:sans-serif;letter-spacing:0px;word-spacing:0px;stroke-width:0.264583"
         x="161.56316"
         y="205.42635"
         id="text89147"><tspan
           sodipodi:role="line"
           id="tspan89145"
           style="stroke-width:0.264583"
           x="161.56316"
           y="205.42635">RESET</tspan><tspan
           sodipodi:role="line"
           style="stroke-width:0.264583"
           x="161.56316"
           y="210.718"
           id="tspan89149" /></text>
      <text
         xml:space="preserve"
         style="font-size:4.23333px;line-height:1.25;font-family:sans-serif;-inkscape-font-specification:sans-serif;letter-spacing:0px;word-spacing:0px;stroke-width:0.264583"
         x="212.89352"
         y="205.42635"
         id="text93619"><tspan
           sodipodi:role="line"
           id="tspan93617"
           style="stroke-width:0.264583"
           x="212.89352"
           y="205.42635">DISCHARGE</tspan><tspan
           sodipodi:role="line"
           style="stroke-width:0.264583"
           x="212.89352"
           y="210.718"
           id="tspan93621" /></text>
      <text
         xml:space="preserve"
         style="font-size:4.23333px;line-height:1.25;font-family:sans-serif;-inkscape-font-specification:sans-serif;letter-spacing:0px;word-spacing:0px;stroke-width:0.264583"
         x="62.099014"
         y="205.39844"
         id="text95143"><tspan
           sodipodi:role="line"
           id="tspan95141"
           style="stroke-width:0.264583"
           x="62.099014"
           y="205.39844">Vcc</tspan></text>
      <text
         xml:space="preserve"
         style="font-size:4.23333px;line-height:1.25;font-family:sans-serif;-inkscape-font-specification:sans-serif;letter-spacing:0px;word-spacing:0px;stroke-width:0.264583"
         x="8.7255096"
         y="238.50592"
         id="text100181"><tspan
           sodipodi:role="line"
           style="stroke-width:0.264583"
           x="8.7255096"
           y="238.50592"
           id="tspan165165">THRESHOLD</tspan></text>
      <text
         xml:space="preserve"
         style="font-size:4.23333px;line-height:1.25;font-family:sans-serif;-inkscape-font-specification:sans-serif;letter-spacing:0px;word-spacing:0px;stroke-width:0.264583"
         x="15.850652"
         y="287.33414"
         id="text103061"><tspan
           sodipodi:role="line"
           id="tspan103059"
           style="stroke-width:0.264583"
           x="15.850652"
           y="287.33414">TRIGGER</tspan><tspan
           sodipodi:role="line"
           style="stroke-width:0.264583"
           x="15.850652"
           y="292.62579"
           id="tspan103063" /></text>
      <text
         xml:space="preserve"
         style="font-size:4.23333px;line-height:1.25;font-family:sans-serif;-inkscape-font-specification:sans-serif;letter-spacing:0px;word-spacing:0px;stroke-width:0.264583"
         x="242.17534"
         y="275.92343"
         id="text112897"><tspan
           sodipodi:role="line"
           id="tspan112895"
           style="stroke-width:0.264583"
           x="242.17534"
           y="275.92343">OUT</tspan><tspan
           sodipodi:role="line"
           style="stroke-width:0.264583"
           x="242.17534"
           y="281.21509"
           id="tspan112899" /></text>
      <text
         xml:space="preserve"
         style="font-size:4.23333px;line-height:1.25;font-family:sans-serif;-inkscape-font-specification:sans-serif;letter-spacing:0px;word-spacing:0px;stroke-width:0.264583"
         x="68.051155"
         y="330.40793"
         id="text114537"><tspan
           sodipodi:role="line"
           id="tspan114535"
           style="stroke-width:0.264583"
           x="68.051155"
           y="330.40793">GND</tspan></text>
      <text
         xml:space="preserve"
         style="font-size:4.23333px;line-height:1.25;font-family:sans-serif;-inkscape-font-specification:sans-serif;letter-spacing:0px;word-spacing:0px;stroke-width:0.264583"
         x="67.132408"
         y="321.1897"
         id="text120003-5"><tspan
           sodipodi:role="line"
           id="tspan120001-4"
           style="stroke-width:0.264583"
           x="67.132408"
           y="321.1897">1</tspan></text>
      <text
         xml:space="preserve"
         style="font-size:4.23333px;line-height:1.25;font-family:sans-serif;-inkscape-font-specification:sans-serif;letter-spacing:0px;word-spacing:0px;stroke-width:0.264583"
         x="35.752464"
         y="296.52725"
         id="text121473-7"><tspan
           sodipodi:role="line"
           id="tspan121471-4"
           style="stroke-width:0.264583"
           x="35.752464"
           y="296.52725">2</tspan></text>
      <text
         xml:space="preserve"
         style="font-size:4.23333px;line-height:1.25;font-family:sans-serif;-inkscape-font-specification:sans-serif;letter-spacing:0px;word-spacing:0px;stroke-width:0.264583"
         x="236.96992"
         y="277.22839"
         id="text122291-4"><tspan
           sodipodi:role="line"
           id="tspan122289-3"
           style="stroke-width:0.264583"
           x="236.96992"
           y="277.22839">3</tspan></text>
      <text
         xml:space="preserve"
         style="font-size:4.23333px;line-height:1.25;font-family:sans-serif;-inkscape-font-specification:sans-serif;letter-spacing:0px;word-spacing:0px;stroke-width:0.264583"
         x="154.13814"
         y="210.14922"
         id="text123153-0"><tspan
           sodipodi:role="line"
           id="tspan123151-7"
           style="stroke-width:0.264583"
           x="154.13814"
           y="210.14922">4</tspan></text>
      <text
         xml:space="preserve"
         style="font-size:4.23333px;line-height:1.25;font-family:sans-serif;-inkscape-font-specification:sans-serif;letter-spacing:0px;word-spacing:0px;stroke-width:0.264583"
         x="81.691658"
         y="210.11925"
         id="text123553-8"><tspan
           sodipodi:role="line"
           id="tspan123551-6"
           style="stroke-width:0.264583"
           x="81.691658"
           y="210.11925">5</tspan></text>
      <text
         xml:space="preserve"
         style="font-size:4.23333px;line-height:1.25;font-family:sans-serif;-inkscape-font-specification:sans-serif;letter-spacing:0px;word-spacing:0px;stroke-width:0.264583"
         x="35.681152"
         y="247.72614"
         id="text124811-8"><tspan
           sodipodi:role="line"
           id="tspan124809-8"
           style="stroke-width:0.264583"
           x="35.681152"
           y="247.72614">6</tspan></text>
      <text
         xml:space="preserve"
         style="font-size:4.23333px;line-height:1.25;font-family:sans-serif;-inkscape-font-specification:sans-serif;letter-spacing:0px;word-spacing:0px;stroke-width:0.264583"
         x="204.7541"
         y="210.14922"
         id="text125739-4"><tspan
           sodipodi:role="line"
           id="tspan125737-3"
           style="stroke-width:0.264583"
           x="204.7541"
           y="210.14922">7</tspan></text>
      <text
         xml:space="preserve"
         style="font-size:4.23333px;line-height:1.25;font-family:sans-serif;-inkscape-font-specification:sans-serif;letter-spacing:0px;word-spacing:0px;stroke-width:0.264583"
         x="68.1222"
         y="210.14716"
         id="text126513-1"><tspan
           sodipodi:role="line"
           id="tspan126511-4"
           style="stroke-width:0.264583"
           x="68.1222"
           y="210.14716">8</tspan></text>
      <text
         xml:space="preserve"
         style="font-size:4.93889px;line-height:1.25;font-family:sans-serif;-inkscape-font-specification:sans-serif;letter-spacing:0px;word-spacing:0px;fill:#ff7f2a;stroke:#ff7f2a;stroke-width:0.264583"
         x="54.10553"
         y="200.27597"
         id="text133293"><tspan
           sodipodi:role="line"
           id="tspan133291"
           style="font-size:4.93889px;fill:#ff7f2a;stroke:#ff7f2a;stroke-width:0.264583"
           x="54.10553"
           y="200.27597">5V-15V</tspan></text>
      <text
         xml:space="preserve"
         style="font-size:4.93889px;line-height:1.25;font-family:sans-serif;-inkscape-font-specification:sans-serif;letter-spacing:0px;word-spacing:0px;fill:#ff7f2a;stroke:#ff7f2a;stroke-width:0.264583"
         x="62.823143"
         y="230.94174"
         id="text133293-9"><tspan
           sodipodi:role="line"
           id="tspan133291-7"
           style="font-size:4.93889px;fill:#ff7f2a;stroke:#ff7f2a;stroke-width:0.264583"
           x="62.823143"
           y="230.94174">5k</tspan></text>
      <text
         xml:space="preserve"
         style="font-size:4.93889px;line-height:1.25;font-family:sans-serif;-inkscape-font-specification:sans-serif;letter-spacing:0px;word-spacing:0px;fill:#ff7f2a;stroke:#ff7f2a;stroke-width:0.264583"
         x="63.46492"
         y="267.32123"
         id="text133293-9-3"><tspan
           sodipodi:role="line"
           id="tspan133291-7-6"
           style="font-size:4.93889px;fill:#ff7f2a;stroke:#ff7f2a;stroke-width:0.264583"
           x="63.46492"
           y="267.32123">5k</tspan></text>
      <text
         xml:space="preserve"
         style="font-size:4.93889px;line-height:1.25;font-family:sans-serif;-inkscape-font-specification:sans-serif;letter-spacing:0px;word-spacing:0px;fill:#ff7f2a;stroke:#ff7f2a;stroke-width:0.264583"
         x="63.184845"
         y="306.10114"
         id="text133293-9-1"><tspan
           sodipodi:role="line"
           id="tspan133291-7-06"
           style="font-size:4.93889px;fill:#ff7f2a;stroke:#ff7f2a;stroke-width:0.264583"
           x="63.184845"
           y="306.10114">5k</tspan></text>
      <text
         xml:space="preserve"
         style="font-size:4.93889px;line-height:1.25;font-family:sans-serif;-inkscape-font-specification:sans-serif;letter-spacing:0px;word-spacing:0px;fill:#ff7f2a;stroke:#ff7f2a;stroke-width:0.264583"
         x="50.553135"
         y="252.49406"
         id="text133293-3"><tspan
           sodipodi:role="line"
           id="tspan133291-6"
           style="font-size:4.93889px;fill:#ff7f2a;stroke:#ff7f2a;stroke-width:0.264583"
           x="50.553135"
           y="252.49406">2/3 Vcc</tspan></text>
      <text
         xml:space="preserve"
         style="font-size:4.93889px;line-height:1.25;font-family:sans-serif;-inkscape-font-specification:sans-serif;letter-spacing:0px;word-spacing:0px;fill:#ff7f2a;stroke:#ff7f2a;stroke-width:0.264583"
         x="51.057404"
         y="282.41287"
         id="text133293-1"><tspan
           sodipodi:role="line"
           id="tspan133291-2"
           style="font-size:4.93889px;fill:#ff7f2a;stroke:#ff7f2a;stroke-width:0.264583"
           x="51.057404"
           y="282.41287">1/3 Vcc</tspan><tspan
           sodipodi:role="line"
           style="font-size:4.93889px;fill:#ff7f2a;stroke:#ff7f2a;stroke-width:0.264583"
           x="51.057404"
           y="288.58649"
           id="tspan151162" /></text>
      <rect
         style="fill:none;fill-opacity:1;stroke:#000000;stroke-width:0.499999;stroke-linecap:round;stroke-linejoin:miter;stroke-miterlimit:4;stroke-dasharray:2, 3.99999;stroke-dashoffset:0"
         id="rect159683"
         width="186.58961"
         height="99.233681"
         x="45.379162"
         y="215.95753" />
      <path
         style="fill:none;stroke:#000000;stroke-width:0.9;stroke-linecap:butt;stroke-linejoin:miter;stroke-miterlimit:4;stroke-dasharray:none;stroke-opacity:1"
         d="m 72.940578,311.45445 v 2.25712 7.96172"
         id="path160285"
         sodipodi:nodetypes="ccc" />
      <path
         style="fill:none;stroke:#000000;stroke-width:0.897454;stroke-linecap:butt;stroke-linejoin:miter;stroke-miterlimit:4;stroke-dasharray:none;stroke-opacity:1"
         d="m 72.92958,296.05933 -0.07584,-14.09916 0.08684,-8.05315"
         id="path160636"
         sodipodi:nodetypes="ccc" />
      <path
         style="fill:none;stroke:#000000;stroke-width:0.9;stroke-linecap:butt;stroke-linejoin:miter;stroke-miterlimit:4;stroke-dasharray:none;stroke-opacity:1"
         d="m 72.92958,258.5119 -0.03545,-6.60876 0.04645,-14.97122"
         id="path161077" />
      <path
         style="fill:none;stroke:#000000;stroke-width:0.9;stroke-linecap:butt;stroke-linejoin:miter;stroke-miterlimit:4;stroke-dasharray:none;stroke-opacity:1"
         d="M 72.92958,221.5368 73.0253,206.68849"
         id="path161112" />
      <path
         style="fill:none;stroke:#000000;stroke-width:0.9;stroke-linecap:round;stroke-linejoin:miter;stroke-miterlimit:4;stroke-dasharray:none;stroke-opacity:1"
         d="m 34.949225,242.34861 66.499475,-0.184 h -0.17259"
         id="path161561"
         sodipodi:nodetypes="ccc" />
      <path
         style="fill:none;stroke:#000000;stroke-width:0.9;stroke-linecap:round;stroke-linejoin:miter;stroke-miterlimit:4;stroke-dasharray:none;stroke-opacity:1"
         d="m 35.121996,291.17678 66.499474,-0.184 h -0.17259"
         id="path161561-9"
         sodipodi:nodetypes="ccc" />
      <path
         style="fill:none;stroke:#000000;stroke-width:0.9;stroke-linecap:butt;stroke-linejoin:miter;stroke-miterlimit:4;stroke-dasharray:none;stroke-opacity:1"
         d="M 73.181106,251.91213 H 101.15113"
         id="path162064" />
      <path
         style="fill:none;stroke:#000000;stroke-width:0.9;stroke-linecap:round;stroke-linejoin:miter;stroke-miterlimit:4;stroke-dasharray:none;stroke-opacity:1"
         d="m 170.7931,254.50463 h 1.717"
         id="path162064-26" />
      <path
         style="fill:none;stroke:#000000;stroke-width:0.9;stroke-linecap:butt;stroke-linejoin:miter;stroke-miterlimit:4;stroke-dasharray:none;stroke-opacity:1"
         d="M 73.385592,282.00946 H 101.35562"
         id="path162064-2" />
      <path
         style="fill:none;stroke:#000000;stroke-width:0.9;stroke-linecap:butt;stroke-linejoin:miter;stroke-miterlimit:4;stroke-dasharray:none;stroke-opacity:1"
         d="m 173.59774,279.16554 h 21.44802"
         id="path162497" />
      <path
         style="fill:none;stroke:#000000;stroke-width:0.836658;stroke-linecap:butt;stroke-linejoin:miter;stroke-miterlimit:4;stroke-dasharray:none;stroke-opacity:1"
         d="M 222.62885,279.12225 H 241.1641"
         id="path162497-9" />
      <path
         style="fill:none;stroke:#000000;stroke-width:0.9;stroke-linecap:butt;stroke-linejoin:miter;stroke-miterlimit:4;stroke-dasharray:none;stroke-opacity:1"
         d="m 159.00015,206.73372 v 37.21182"
         id="path162756" />
      <path
         style="fill:none;stroke:#000000;stroke-width:0.9;stroke-linecap:butt;stroke-linejoin:miter;stroke-miterlimit:4;stroke-dasharray:none;stroke-opacity:1"
         d="m 159.03423,207.84989 v 36.34984"
         id="path162756-0" />
      <path
         style="fill:none;stroke:#000000;stroke-width:0.9;stroke-linecap:butt;stroke-linejoin:miter;stroke-miterlimit:4;stroke-dasharray:none;stroke-opacity:1"
         d="m 87.221042,206.61657 v 45.53007"
         id="path162756-6" />
      <path
         style="fill:none;stroke:#000000;stroke-width:0.9;stroke-linecap:butt;stroke-linejoin:miter;stroke-miterlimit:4;stroke-dasharray:none;stroke-opacity:1"
         d="M 210.18381,227.79091 V 206.66685"
         id="path162948" />
      <path
         style="fill:none;stroke:#000000;stroke-width:0.9;stroke-linecap:butt;stroke-linejoin:miter;stroke-miterlimit:4;stroke-dasharray:none;stroke-opacity:1"
         d="m 184.10745,278.96573 v -38.47482 l 15.8921,0.0409"
         id="path163063"
         sodipodi:nodetypes="ccc" />
      <path
         style="fill:none;stroke:#000000;stroke-width:0.9;stroke-linecap:round;stroke-linejoin:round;stroke-miterlimit:4;stroke-dasharray:none;stroke-opacity:1"
         d="m 122.14782,246.77798 h 13.50287 v 7.42955 l 11.56426,0.0838"
         id="path163439" />
      <path
         style="fill:none;stroke:#000000;stroke-width:0.9;stroke-linecap:round;stroke-linejoin:round;stroke-miterlimit:4;stroke-dasharray:none;stroke-opacity:1"
         d="m 122.14782,286.10793 h 13.50287 v -7.42955 l 11.56426,-0.0838"
         id="path163439-6" />
    </g>
    <rect
       style="fill:#ffffff;fill-opacity:1;stroke:none;stroke-width:0.633477;stroke-linecap:round;stroke-linejoin:miter;stroke-miterlimit:4;stroke-dasharray:2.53392, 5.06784;stroke-dashoffset:0"
       id="rect159889-5"
       width="335.54459"
       height="209.80038"
       x="-58.444054"
       y="424.75812" />
    <g
       id="g177705-4"
       transform="translate(278.43822,-0.50661536)">
      <path
         style="fill:#0000ff;stroke:#0000ff;stroke-width:0.9;stroke-linecap:round;stroke-linejoin:miter;stroke-miterlimit:4;stroke-dasharray:none;stroke-opacity:1"
         d="m -27.690971,606.41258 h 5.74729"
         id="path72774-1-0" />
      <path
         style="fill:#0000ff;stroke:#0000ff;stroke-width:0.9;stroke-linecap:round;stroke-linejoin:miter;stroke-miterlimit:4;stroke-dasharray:none;stroke-opacity:1"
         d="m -26.920581,607.84456 h 4.2065"
         id="path72776-7-6" />
      <path
         style="fill:#0000ff;stroke:#0000ff;stroke-width:0.9;stroke-linecap:round;stroke-linejoin:miter;stroke-miterlimit:4;stroke-dasharray:none;stroke-opacity:1"
         d="m -26.106011,609.27651 h 2.57737"
         id="path72778-2-2" />
      <path
         style="fill:#0000ff;stroke:#0000ff;stroke-width:0.9;stroke-linecap:round;stroke-linejoin:miter;stroke-miterlimit:4;stroke-dasharray:none;stroke-opacity:1"
         d="M -24.817331,606.37107 V 603.8441"
         id="path72911-7-99" />
    </g>
    <path
       style="fill:none;stroke:#0000ff;stroke-width:0.9;stroke-linecap:round;stroke-linejoin:round;stroke-miterlimit:4;stroke-dasharray:none;stroke-opacity:1"
       d="m 253.65443,584.47314 5.3e-4,-1.92855 -1.77615,-1.23113 3.29351,-1.83124 -3.27374,-1.59555 3.24996,-1.78027 -3.28615,-1.69252 3.29487,-1.62528 -1.48013,-1.20791 -0.0337,-2.50267"
       id="path69421-49-2"
       sodipodi:nodetypes="cccccccccc" />
    <g
       id="g175136"
       transform="translate(32.100628,314.00647)">
      <text
         xml:space="preserve"
         style="font-size:5.64444px;line-height:1.25;font-family:sans-serif;-inkscape-font-specification:sans-serif;letter-spacing:0px;word-spacing:0px;fill:#0000ff;stroke-width:0.264583"
         x="-71.232437"
         y="279.37274"
         id="text172541-5"><tspan
           sodipodi:role="line"
           id="tspan172539-9"
           style="fill:#0000ff;stroke-width:0.264583"
           x="-71.232437"
           y="279.37274">S</tspan></text>
      <circle
         style="fill:none;fill-opacity:1;stroke:#0000ff;stroke-width:0.5;stroke-linecap:round;stroke-linejoin:round;stroke-miterlimit:4;stroke-dasharray:none;stroke-dashoffset:0"
         id="path173349-7"
         cx="-69.412048"
         cy="277.31808"
         r="5.229651" />
    </g>
    <g
       id="g177705">
      <path
         style="fill:#0000ff;stroke:#0000ff;stroke-width:0.9;stroke-linecap:round;stroke-linejoin:miter;stroke-miterlimit:4;stroke-dasharray:none;stroke-opacity:1"
         d="m -27.690971,606.41258 h 5.74729"
         id="path72774-1" />
      <path
         style="fill:#0000ff;stroke:#0000ff;stroke-width:0.9;stroke-linecap:round;stroke-linejoin:miter;stroke-miterlimit:4;stroke-dasharray:none;stroke-opacity:1"
         d="m -26.920581,607.84456 h 4.2065"
         id="path72776-7" />
      <path
         style="fill:#0000ff;stroke:#0000ff;stroke-width:0.9;stroke-linecap:round;stroke-linejoin:miter;stroke-miterlimit:4;stroke-dasharray:none;stroke-opacity:1"
         d="m -26.106011,609.27651 h 2.57737"
         id="path72778-2" />
      <path
         style="fill:#0000ff;stroke:#0000ff;stroke-width:0.9;stroke-linecap:round;stroke-linejoin:miter;stroke-miterlimit:4;stroke-dasharray:none;stroke-opacity:1"
         d="M -24.817331,606.37107 V 603.8441"
         id="path72911-7" />
    </g>
    <path
       style="fill:none;stroke:#0000ff;stroke-width:0.9;stroke-linecap:round;stroke-linejoin:round;stroke-miterlimit:4;stroke-dasharray:none;stroke-opacity:1"
       d="m -24.721611,573.12078 5.3e-4,-1.92855 -1.77615,-1.23113 3.29351,-1.83124 -3.27374,-1.59555 3.24996,-1.78027 -3.28615,-1.69252 3.29487,-1.62528 -1.48013,-1.20791 -0.0337,-2.50267"
       id="path69421-49"
       sodipodi:nodetypes="cccccccccc" />
    <path
       sodipodi:type="star"
       id="path69-0"
       inkscape:flatsided="false"
       sodipodi:sides="3"
       sodipodi:cx="262.12796"
       sodipodi:cy="494.64664"
       sodipodi:r1="73.109612"
       sodipodi:r2="36.554806"
       sodipodi:arg1="0"
       sodipodi:arg2="1.0471976"
       inkscape:rounded="0"
       inkscape:randomized="0"
       transform="matrix(0.1889081,0,0,0.17786307,55.537658,446.04006)"
       inkscape:transform-center-x="-3.4527503"
       style="fill:#00aa88;stroke:#000000;stroke-width:2.76234;stroke-miterlimit:4;stroke-dasharray:none"
       d="m 335.23757,494.64664 -54.83221,31.65739 -54.83221,31.65739 0,-63.31478 0,-63.31478 54.83221,31.65739 z" />
    <text
       xml:space="preserve"
       style="font-size:6.18198px;line-height:1.25;font-family:'Bitstream Vera Sans Mono';-inkscape-font-specification:'Bitstream Vera Sans Mono';letter-spacing:0px;word-spacing:0px;fill:#d5f6ff;stroke-width:0.15455"
       x="99.430336"
       y="531.26941"
       id="text9398-9"><tspan
         sodipodi:role="line"
         style="fill:#d5f6ff;stroke-width:0.15455"
         x="99.430336"
         y="531.26941"
         id="tspan9400-6">+ </tspan></text>
    <text
       xml:space="preserve"
       style="font-size:6.18198px;line-height:1.25;font-family:'Bitstream Vera Sans Mono';-inkscape-font-specification:'Bitstream Vera Sans Mono';letter-spacing:0px;word-spacing:0px;fill:#d5f6ff;stroke-width:0.15455"
       x="99.563148"
       y="540.59155"
       id="text43624-3"><tspan
         sodipodi:role="line"
         id="tspan43622-8"
         style="fill:#d5f6ff;stroke-width:0.15455"
         x="99.563148"
         y="540.59155">-</tspan></text>
    <path
       sodipodi:type="star"
       id="path69-3-5"
       inkscape:flatsided="false"
       sodipodi:sides="3"
       sodipodi:cx="262.12796"
       sodipodi:cy="494.64664"
       sodipodi:r1="73.109612"
       sodipodi:r2="36.554806"
       sodipodi:arg1="0"
       sodipodi:arg2="1.0471976"
       inkscape:rounded="0"
       inkscape:randomized="0"
       transform="matrix(0.1889081,0,0,0.17786307,55.537658,485.37)"
       inkscape:transform-center-x="-3.4527503"
       style="fill:#00aa88;stroke:#000000;stroke-width:2.76234;stroke-miterlimit:4;stroke-dasharray:none"
       d="m 335.23757,494.64664 -54.83221,31.65739 -54.83221,31.65739 0,-63.31478 0,-63.31478 54.83221,31.65739 z" />
    <text
       xml:space="preserve"
       style="font-size:6.18198px;line-height:1.25;font-family:'Bitstream Vera Sans Mono';-inkscape-font-specification:'Bitstream Vera Sans Mono';letter-spacing:0px;word-spacing:0px;fill:#d5f6ff;stroke-width:0.15455"
       x="99.430336"
       y="570.59937"
       id="text9398-1-6"><tspan
         sodipodi:role="line"
         style="fill:#d5f6ff;stroke-width:0.15455"
         x="99.430336"
         y="570.59937"
         id="tspan9400-9-1">+ </tspan></text>
    <text
       xml:space="preserve"
       style="font-size:6.18198px;line-height:1.25;font-family:'Bitstream Vera Sans Mono';-inkscape-font-specification:'Bitstream Vera Sans Mono';letter-spacing:0px;word-spacing:0px;fill:#d5f6ff;stroke-width:0.15455"
       x="99.563148"
       y="579.92151"
       id="text43624-4-1"><tspan
         sodipodi:role="line"
         id="tspan43622-7-5"
         style="fill:#d5f6ff;stroke-width:0.15455"
         x="99.563148"
         y="579.92151">-</tspan></text>
    <rect
       style="fill:#00aad4;stroke:#000000;stroke-width:0.499999;stroke-miterlimit:4;stroke-dasharray:none"
       id="rect46761-9"
       width="23.190262"
       height="39.445847"
       x="144.12395"
       y="534.08783" />
    <text
       xml:space="preserve"
       style="font-size:4.85196px;line-height:1.25;font-family:sans-serif;-inkscape-font-specification:sans-serif;letter-spacing:0px;word-spacing:0px;fill:#d5f6ff;stroke-width:0.121299"
       x="147.00145"
       y="543.40588"
       id="text57029-8"><tspan
         sodipodi:role="line"
         id="tspan57027-4"
         style="fill:#d5f6ff;stroke-width:0.121299"
         x="147.00145"
         y="543.40588">R</tspan></text>
    <text
       xml:space="preserve"
       style="font-size:4.85196px;line-height:1.25;font-family:sans-serif;-inkscape-font-specification:sans-serif;letter-spacing:0px;word-spacing:0px;fill:#d5f6ff;stroke-width:0.121299"
       x="147.29048"
       y="567.17084"
       id="text58997-8"><tspan
         sodipodi:role="line"
         id="tspan58995-1"
         style="fill:#d5f6ff;stroke-width:0.121299"
         x="147.29048"
         y="567.17084">S</tspan></text>
    <text
       xml:space="preserve"
       style="font-size:4.85196px;line-height:1.25;font-family:sans-serif;-inkscape-font-specification:sans-serif;letter-spacing:0px;word-spacing:0px;fill:#d5f6ff;stroke-width:0.121299"
       x="160.75127"
       y="543.12512"
       id="text60807-0"><tspan
         sodipodi:role="line"
         id="tspan60805-3"
         style="fill:#d5f6ff;stroke-width:0.121299"
         x="160.75127"
         y="543.12512">Q</tspan></text>
    <text
       xml:space="preserve"
       style="font-size:4.85196px;line-height:1.25;font-family:sans-serif;-inkscape-font-specification:sans-serif;letter-spacing:0px;word-spacing:0px;fill:#d5f6ff;stroke-width:0.121299"
       x="160.75125"
       y="567.42145"
       id="text60035-0"><tspan
         sodipodi:role="line"
         id="tspan60033-4"
         style="fill:#d5f6ff;stroke-width:0.121299"
         x="160.75125"
         y="567.42145">Q</tspan></text>
    <path
       style="fill:#d7eef4;stroke:#d7eef4;stroke-width:0.395185;stroke-linecap:butt;stroke-linejoin:miter;stroke-opacity:1"
       d="m 161.16445,563.3103 h 2.99264"
       id="path64484-4" />
    <circle
       style="fill:none;fill-opacity:1;stroke:#000000;stroke-width:0.9;stroke-miterlimit:4;stroke-dasharray:none"
       id="path64955-3-4"
       cx="155.71909"
       cy="492.73987"
       r="1.1241155" />
    <circle
       style="fill:none;fill-opacity:1;stroke:#000000;stroke-width:0.9;stroke-miterlimit:4;stroke-dasharray:none"
       id="path64955-2-4"
       cx="206.90274"
       cy="492.73987"
       r="1.1241155" />
    <circle
       style="fill:none;fill-opacity:1;stroke:#000000;stroke-width:0.9;stroke-miterlimit:4;stroke-dasharray:none"
       id="path64955-0-7"
       cx="83.842468"
       cy="492.73987"
       r="1.1241155" />
    <circle
       style="fill:none;fill-opacity:1;stroke:#000000;stroke-width:0.9;stroke-miterlimit:4;stroke-dasharray:none"
       id="path64955-6-6"
       cx="69.887047"
       cy="492.73987"
       r="1.1241155" />
    <circle
       style="fill:none;fill-opacity:1;stroke:#000000;stroke-width:0.9;stroke-miterlimit:4;stroke-dasharray:none"
       id="path64955-1-3"
       cx="30.525597"
       cy="529.55182"
       r="1.1241155" />
    <circle
       style="fill:none;fill-opacity:1;stroke:#000000;stroke-width:0.9;stroke-miterlimit:4;stroke-dasharray:none"
       id="path64955-5-1"
       cx="30.525597"
       cy="578.28314"
       r="1.1241155" />
    <circle
       style="fill:none;fill-opacity:1;stroke:#000000;stroke-width:0.9;stroke-miterlimit:4;stroke-dasharray:none"
       id="path64955-54-7"
       cx="69.617332"
       cy="610.10858"
       r="1.1241155" />
    <circle
       style="fill:none;fill-opacity:1;stroke:#000000;stroke-width:0.9;stroke-miterlimit:4;stroke-dasharray:none"
       id="path64955-7-5"
       cx="239.14127"
       cy="566.38635"
       r="1.1241155" />
    <circle
       style="fill:none;fill-opacity:1;stroke:#000000;stroke-width:0.9;stroke-miterlimit:4;stroke-dasharray:none"
       id="path64955-65-9"
       cx="193.23219"
       cy="566.29474"
       r="1.1241155" />
    <circle
       style="fill:none;fill-opacity:1;stroke:#000000;stroke-width:0.9;stroke-miterlimit:4;stroke-dasharray:none"
       id="path64955-69-6"
       cx="169.13832"
       cy="566.29474"
       r="1.1241155" />
    <circle
       style="fill:none;fill-opacity:1;stroke:#000000;stroke-width:0.9;stroke-miterlimit:4;stroke-dasharray:none"
       id="path64955-37-2"
       cx="155.71909"
       cy="532.26373"
       r="1.1241155" />
    <circle
       style="fill:#000000;fill-opacity:1;stroke:#000000;stroke-width:0.81419;stroke-miterlimit:4;stroke-dasharray:none"
       id="path64955-8-8-1"
       cx="83.925705"
       cy="539.14203"
       r="1.0169374" />
    <circle
       style="fill:#000000;fill-opacity:1;stroke:#000000;stroke-width:0.81419;stroke-miterlimit:4;stroke-dasharray:none"
       id="path64955-8-4-7"
       cx="69.617332"
       cy="539.1474"
       r="1.0169374" />
    <circle
       style="fill:#000000;fill-opacity:1;stroke:#000000;stroke-width:0.81419;stroke-miterlimit:4;stroke-dasharray:none"
       id="path64955-8-5-8"
       cx="69.617332"
       cy="569.3158"
       r="1.0169374" />
    <circle
       style="fill:#000000;fill-opacity:1;stroke:#000000;stroke-width:0.81419;stroke-miterlimit:4;stroke-dasharray:none"
       id="path64955-8-2-5"
       cx="180.81476"
       cy="566.29474"
       r="1.0169374" />
    <path
       style="fill:none;stroke:#000000;stroke-width:0.9;stroke-linecap:round;stroke-linejoin:round;stroke-miterlimit:4;stroke-dasharray:none;stroke-opacity:1"
       d="m 69.659509,524.17336 5.3e-4,-1.92855 -1.77615,-1.23113 3.29351,-1.83124 -3.27374,-1.59555 3.24996,-1.78027 -3.28615,-1.69252 3.29487,-1.62528 -1.48013,-1.20791 -0.0337,-2.50267"
       id="path69421-7"
       sodipodi:nodetypes="cccccccccc" />
    <path
       style="fill:none;stroke:#000000;stroke-width:0.9;stroke-linecap:round;stroke-linejoin:round;stroke-miterlimit:4;stroke-dasharray:none;stroke-opacity:1"
       d="m 69.659509,561.14846 5.3e-4,-1.92855 -1.77615,-1.23113 3.29351,-1.83124 -3.27374,-1.59555 3.24996,-1.78027 -3.28615,-1.69252 3.29487,-1.62528 -1.48013,-1.20791 -0.0337,-2.50267"
       id="path69421-8-4"
       sodipodi:nodetypes="cccccccccc" />
    <path
       style="fill:none;stroke:#000000;stroke-width:0.9;stroke-linecap:round;stroke-linejoin:round;stroke-miterlimit:4;stroke-dasharray:none;stroke-opacity:1"
       d="m 69.659509,598.69589 5.3e-4,-1.92855 -1.77615,-1.23113 3.29351,-1.83124 -3.27374,-1.59555 3.24996,-1.78027 -3.28615,-1.69252 3.29487,-1.62528 -1.48013,-1.20791 -0.0337,-2.50267"
       id="path69421-4-1"
       sodipodi:nodetypes="cccccccccc" />
    <path
       style="fill:none;stroke:#000000;stroke-width:0.9;stroke-linecap:round;stroke-linejoin:round;stroke-miterlimit:4;stroke-dasharray:none;stroke-opacity:1"
       d="m 205.25716,532.47717 1.57959,2.64174 -3.04907,-0.38189"
       id="path71629-8"
       sodipodi:nodetypes="ccc" />
    <path
       style="fill:none;stroke:#000000;stroke-width:0.9;stroke-linecap:round;stroke-linejoin:round;stroke-miterlimit:4;stroke-dasharray:none;stroke-opacity:1"
       d="m 206.90275,515.03235 v 5.74129 l -5.80833,3.91611 v 6.42052 l 5.85362,4.19096 -0.009,3.35242"
       id="path71235-5"
       sodipodi:nodetypes="cccccc" />
    <path
       style="fill:none;stroke:#000000;stroke-width:0.9;stroke-linecap:round;stroke-linejoin:round;stroke-miterlimit:4;stroke-dasharray:none;stroke-opacity:1"
       d="m 201.02809,522.34359 v 10.71449"
       id="path71352-9" />
    <path
       style="fill:none;stroke:#000000;stroke-width:0.9;stroke-linecap:round;stroke-linejoin:round;stroke-miterlimit:4;stroke-dasharray:none;stroke-opacity:1"
       d="m 196.71849,527.77329 h 4.2166"
       id="path71354-7" />
    <path
       style="fill:none;stroke:#000000;stroke-width:0.9;stroke-linecap:round;stroke-linejoin:miter;stroke-miterlimit:4;stroke-dasharray:none;stroke-opacity:1"
       d="m 204.0654,541.22213 h 5.74729"
       id="path72774-5" />
    <path
       style="fill:none;stroke:#000000;stroke-width:0.9;stroke-linecap:round;stroke-linejoin:miter;stroke-miterlimit:4;stroke-dasharray:none;stroke-opacity:1"
       d="m 204.83579,542.65411 h 4.2065"
       id="path72776-3" />
    <path
       style="fill:none;stroke:#000000;stroke-width:0.9;stroke-linecap:round;stroke-linejoin:miter;stroke-miterlimit:4;stroke-dasharray:none;stroke-opacity:1"
       d="m 205.65036,544.08606 h 2.57737"
       id="path72778-8" />
    <path
       style="fill:none;stroke:#000000;stroke-width:0.9;stroke-linecap:round;stroke-linejoin:miter;stroke-miterlimit:4;stroke-dasharray:none;stroke-opacity:1"
       d="m 206.93904,541.18062 v -2.52697"
       id="path72911-8" />
    <rect
       style="fill:#ff6600;fill-opacity:1;stroke:#000000;stroke-width:0.5;stroke-linecap:round;stroke-linejoin:miter;stroke-miterlimit:4;stroke-dasharray:none"
       id="rect75054-3"
       width="24.441061"
       height="12.281726"
       x="195.0563"
       y="560.15387" />
    <text
       xml:space="preserve"
       style="font-size:4.13752px;line-height:1.25;font-family:sans-serif;-inkscape-font-specification:sans-serif;letter-spacing:0px;word-spacing:0px;fill:#ffffff;stroke-width:0.103438"
       x="198.72299"
       y="567.80084"
       id="text74464-1"><tspan
         sodipodi:role="line"
         id="tspan74462-8"
         style="fill:#ffffff;stroke-width:0.103438"
         x="198.72299"
         y="567.80084">OUTPUT</tspan></text>
    <text
       xml:space="preserve"
       style="font-size:4.23333px;line-height:1.25;font-family:sans-serif;-inkscape-font-specification:sans-serif;letter-spacing:0px;word-spacing:0px;stroke-width:0.264583"
       x="87.391174"
       y="489.16431"
       id="text77809-9"><tspan
         sodipodi:role="line"
         id="tspan77807-6"
         style="font-size:4.23333px;stroke-width:0.264583"
         x="87.391174"
         y="489.16431">CONTROL</tspan><tspan
         sodipodi:role="line"
         style="font-size:4.23333px;stroke-width:0.264583"
         x="87.391174"
         y="494.45596"
         id="tspan77833-4">VOLTAGE</tspan></text>
    <text
       xml:space="preserve"
       style="font-size:4.23333px;line-height:1.25;font-family:sans-serif;-inkscape-font-specification:sans-serif;letter-spacing:0px;word-spacing:0px;stroke-width:0.264583"
       x="158.28209"
       y="492.66776"
       id="text89147-3"><tspan
         sodipodi:role="line"
         id="tspan89145-3"
         style="stroke-width:0.264583"
         x="158.28209"
         y="492.66776">RESET</tspan><tspan
         sodipodi:role="line"
         style="stroke-width:0.264583"
         x="158.28209"
         y="497.95941"
         id="tspan89149-3" /></text>
    <text
       xml:space="preserve"
       style="font-size:4.23333px;line-height:1.25;font-family:sans-serif;-inkscape-font-specification:sans-serif;letter-spacing:0px;word-spacing:0px;stroke-width:0.264583"
       x="209.61246"
       y="492.66776"
       id="text93619-8"><tspan
         sodipodi:role="line"
         id="tspan93617-6"
         style="stroke-width:0.264583"
         x="209.61246"
         y="492.66776">DISCHARGE</tspan><tspan
         sodipodi:role="line"
         style="stroke-width:0.264583"
         x="209.61246"
         y="497.95941"
         id="tspan93621-0" /></text>
    <text
       xml:space="preserve"
       style="font-size:4.23333px;line-height:1.25;font-family:sans-serif;-inkscape-font-specification:sans-serif;letter-spacing:0px;word-spacing:0px;stroke-width:0.264583"
       x="58.817947"
       y="492.63986"
       id="text95143-4"><tspan
         sodipodi:role="line"
         id="tspan95141-8"
         style="stroke-width:0.264583"
         x="58.817947"
         y="492.63986">Vcc</tspan></text>
    <text
       xml:space="preserve"
       style="font-size:4.23333px;line-height:1.25;font-family:sans-serif;-inkscape-font-specification:sans-serif;letter-spacing:0px;word-spacing:0px;stroke-width:0.264583"
       x="5.4444351"
       y="525.74738"
       id="text100181-8"><tspan
         sodipodi:role="line"
         style="stroke-width:0.264583"
         x="5.4444351"
         y="525.74738"
         id="tspan165165-8">THRESHOLD</tspan></text>
    <text
       xml:space="preserve"
       style="font-size:4.23333px;line-height:1.25;font-family:sans-serif;-inkscape-font-specification:sans-serif;letter-spacing:0px;word-spacing:0px;stroke-width:0.264583"
       x="12.569588"
       y="574.57556"
       id="text103061-9"><tspan
         sodipodi:role="line"
         id="tspan103059-7"
         style="stroke-width:0.264583"
         x="12.569588"
         y="574.57556">TRIGGER</tspan><tspan
         sodipodi:role="line"
         style="stroke-width:0.264583"
         x="12.569588"
         y="579.86725"
         id="tspan103063-7" /></text>
    <text
       xml:space="preserve"
       style="font-size:4.23333px;line-height:1.25;font-family:sans-serif;-inkscape-font-specification:sans-serif;letter-spacing:0px;word-spacing:0px;stroke-width:0.264583"
       x="238.89427"
       y="563.16486"
       id="text112897-6"><tspan
         sodipodi:role="line"
         id="tspan112895-4"
         style="stroke-width:0.264583"
         x="238.89427"
         y="563.16486">OUT</tspan><tspan
         sodipodi:role="line"
         style="stroke-width:0.264583"
         x="238.89427"
         y="568.45654"
         id="tspan112899-3" /></text>
    <text
       xml:space="preserve"
       style="font-size:4.23333px;line-height:1.25;font-family:sans-serif;-inkscape-font-specification:sans-serif;letter-spacing:0px;word-spacing:0px;stroke-width:0.264583"
       x="64.770088"
       y="617.64935"
       id="text114537-0"><tspan
         sodipodi:role="line"
         id="tspan114535-3"
         style="stroke-width:0.264583"
         x="64.770088"
         y="617.64935">GND</tspan></text>
    <text
       xml:space="preserve"
       style="font-size:4.23333px;line-height:1.25;font-family:sans-serif;-inkscape-font-specification:sans-serif;letter-spacing:0px;word-spacing:0px;stroke-width:0.264583"
       x="63.851341"
       y="608.43115"
       id="text120003-5-0"><tspan
         sodipodi:role="line"
         id="tspan120001-4-9"
         style="stroke-width:0.264583"
         x="63.851341"
         y="608.43115">1</tspan></text>
    <text
       xml:space="preserve"
       style="font-size:4.23333px;line-height:1.25;font-family:sans-serif;-inkscape-font-specification:sans-serif;letter-spacing:0px;word-spacing:0px;stroke-width:0.264583"
       x="32.471397"
       y="583.76868"
       id="text121473-7-2"><tspan
         sodipodi:role="line"
         id="tspan121471-4-5"
         style="stroke-width:0.264583"
         x="32.471397"
         y="583.76868">2</tspan></text>
    <text
       xml:space="preserve"
       style="font-size:4.23333px;line-height:1.25;font-family:sans-serif;-inkscape-font-specification:sans-serif;letter-spacing:0px;word-spacing:0px;stroke-width:0.264583"
       x="233.68886"
       y="564.46985"
       id="text122291-4-4"><tspan
         sodipodi:role="line"
         id="tspan122289-3-0"
         style="stroke-width:0.264583"
         x="233.68886"
         y="564.46985">3</tspan></text>
    <text
       xml:space="preserve"
       style="font-size:4.23333px;line-height:1.25;font-family:sans-serif;-inkscape-font-specification:sans-serif;letter-spacing:0px;word-spacing:0px;stroke-width:0.264583"
       x="150.85707"
       y="497.39062"
       id="text123153-0-5"><tspan
         sodipodi:role="line"
         id="tspan123151-7-9"
         style="stroke-width:0.264583"
         x="150.85707"
         y="497.39062">4</tspan></text>
    <text
       xml:space="preserve"
       style="font-size:4.23333px;line-height:1.25;font-family:sans-serif;-inkscape-font-specification:sans-serif;letter-spacing:0px;word-spacing:0px;stroke-width:0.264583"
       x="78.410591"
       y="497.36066"
       id="text123553-8-4"><tspan
         sodipodi:role="line"
         id="tspan123551-6-6"
         style="stroke-width:0.264583"
         x="78.410591"
         y="497.36066">5</tspan></text>
    <text
       xml:space="preserve"
       style="font-size:4.23333px;line-height:1.25;font-family:sans-serif;-inkscape-font-specification:sans-serif;letter-spacing:0px;word-spacing:0px;stroke-width:0.264583"
       x="32.400093"
       y="534.96759"
       id="text124811-8-9"><tspan
         sodipodi:role="line"
         id="tspan124809-8-2"
         style="stroke-width:0.264583"
         x="32.400093"
         y="534.96759">6</tspan></text>
    <text
       xml:space="preserve"
       style="font-size:4.23333px;line-height:1.25;font-family:sans-serif;-inkscape-font-specification:sans-serif;letter-spacing:0px;word-spacing:0px;stroke-width:0.264583"
       x="201.47304"
       y="497.39062"
       id="text125739-4-2"><tspan
         sodipodi:role="line"
         id="tspan125737-3-4"
         style="stroke-width:0.264583"
         x="201.47304"
         y="497.39062">7</tspan></text>
    <text
       xml:space="preserve"
       style="font-size:4.23333px;line-height:1.25;font-family:sans-serif;-inkscape-font-specification:sans-serif;letter-spacing:0px;word-spacing:0px;stroke-width:0.264583"
       x="64.841133"
       y="497.38858"
       id="text126513-1-7"><tspan
         sodipodi:role="line"
         id="tspan126511-4-7"
         style="stroke-width:0.264583"
         x="64.841133"
         y="497.38858">8</tspan></text>
    <text
       xml:space="preserve"
       style="font-size:4.93889px;line-height:1.25;font-family:sans-serif;-inkscape-font-specification:sans-serif;letter-spacing:0px;word-spacing:0px;fill:#ff7f2a;stroke:#ff7f2a;stroke-width:0.264583"
       x="50.824463"
       y="487.5174"
       id="text133293-5"><tspan
         sodipodi:role="line"
         id="tspan133291-4"
         style="font-size:4.93889px;fill:#ff7f2a;stroke:#ff7f2a;stroke-width:0.264583"
         x="50.824463"
         y="487.5174">5V-15V</tspan></text>
    <text
       xml:space="preserve"
       style="font-size:4.93889px;line-height:1.25;font-family:sans-serif;-inkscape-font-specification:sans-serif;letter-spacing:0px;word-spacing:0px;fill:#ff7f2a;stroke:#ff7f2a;stroke-width:0.264583"
       x="59.542076"
       y="518.18317"
       id="text133293-9-8"><tspan
         sodipodi:role="line"
         id="tspan133291-7-1"
         style="font-size:4.93889px;fill:#ff7f2a;stroke:#ff7f2a;stroke-width:0.264583"
         x="59.542076"
         y="518.18317">5k</tspan></text>
    <text
       xml:space="preserve"
       style="font-size:4.93889px;line-height:1.25;font-family:sans-serif;-inkscape-font-specification:sans-serif;letter-spacing:0px;word-spacing:0px;fill:#ff7f2a;stroke:#ff7f2a;stroke-width:0.264583"
       x="60.183853"
       y="554.56268"
       id="text133293-9-3-2"><tspan
         sodipodi:role="line"
         id="tspan133291-7-6-8"
         style="font-size:4.93889px;fill:#ff7f2a;stroke:#ff7f2a;stroke-width:0.264583"
         x="60.183853"
         y="554.56268">5k</tspan></text>
    <text
       xml:space="preserve"
       style="font-size:4.93889px;line-height:1.25;font-family:sans-serif;-inkscape-font-specification:sans-serif;letter-spacing:0px;word-spacing:0px;fill:#ff7f2a;stroke:#ff7f2a;stroke-width:0.264583"
       x="59.903778"
       y="593.34259"
       id="text133293-9-1-9"><tspan
         sodipodi:role="line"
         id="tspan133291-7-06-3"
         style="font-size:4.93889px;fill:#ff7f2a;stroke:#ff7f2a;stroke-width:0.264583"
         x="59.903778"
         y="593.34259">5k</tspan></text>
    <text
       xml:space="preserve"
       style="font-size:4.93889px;line-height:1.25;font-family:sans-serif;-inkscape-font-specification:sans-serif;letter-spacing:0px;word-spacing:0px;fill:#ff7f2a;stroke:#ff7f2a;stroke-width:0.264583"
       x="47.272057"
       y="539.73547"
       id="text133293-3-6"><tspan
         sodipodi:role="line"
         id="tspan133291-6-8"
         style="font-size:4.93889px;fill:#ff7f2a;stroke:#ff7f2a;stroke-width:0.264583"
         x="47.272057"
         y="539.73547">2/3 Vcc</tspan></text>
    <text
       xml:space="preserve"
       style="font-size:4.93889px;line-height:1.25;font-family:sans-serif;-inkscape-font-specification:sans-serif;letter-spacing:0px;word-spacing:0px;fill:#ff7f2a;stroke:#ff7f2a;stroke-width:0.264583"
       x="47.776337"
       y="569.6543"
       id="text133293-1-0"><tspan
         sodipodi:role="line"
         id="tspan133291-2-2"
         style="font-size:4.93889px;fill:#ff7f2a;stroke:#ff7f2a;stroke-width:0.264583"
         x="47.776337"
         y="569.6543">1/3 Vcc</tspan><tspan
         sodipodi:role="line"
         style="font-size:4.93889px;fill:#ff7f2a;stroke:#ff7f2a;stroke-width:0.264583"
         x="47.776337"
         y="575.82788"
         id="tspan151162-1" /></text>
    <rect
       style="fill:none;fill-opacity:1;stroke:#000000;stroke-width:0.499999;stroke-linecap:round;stroke-linejoin:miter;stroke-miterlimit:4;stroke-dasharray:2, 3.99999;stroke-dashoffset:0"
       id="rect159683-0"
       width="186.58961"
       height="99.233681"
       x="42.098091"
       y="503.19894" />
    <path
       style="fill:none;stroke:#000000;stroke-width:0.9;stroke-linecap:butt;stroke-linejoin:miter;stroke-miterlimit:4;stroke-dasharray:none;stroke-opacity:1"
       d="m 69.659507,598.69589 v 2.25712 7.96172"
       id="path160285-5"
       sodipodi:nodetypes="ccc" />
    <path
       style="fill:none;stroke:#000000;stroke-width:0.897454;stroke-linecap:butt;stroke-linejoin:miter;stroke-miterlimit:4;stroke-dasharray:none;stroke-opacity:1"
       d="m 69.648509,583.30077 -0.07584,-14.09916 0.08684,-8.05315"
       id="path160636-1"
       sodipodi:nodetypes="ccc" />
    <path
       style="fill:none;stroke:#000000;stroke-width:0.9;stroke-linecap:butt;stroke-linejoin:miter;stroke-miterlimit:4;stroke-dasharray:none;stroke-opacity:1"
       d="m 69.648509,545.75334 -0.03545,-6.60876 0.04645,-14.97122"
       id="path161077-1" />
    <path
       style="fill:none;stroke:#000000;stroke-width:0.9;stroke-linecap:butt;stroke-linejoin:miter;stroke-miterlimit:4;stroke-dasharray:none;stroke-opacity:1"
       d="m 69.648509,508.77824 0.09572,-14.84831"
       id="path161112-0" />
    <circle
       style="fill:#0000ff;fill-opacity:1;stroke:#0000ff;stroke-width:0.9;stroke-miterlimit:4;stroke-dasharray:none"
       id="path64955-6-5"
       cx="-24.494072"
       cy="541.68732"
       r="1.1241155" />
    <text
       xml:space="preserve"
       style="font-size:4.23333px;line-height:1.25;font-family:sans-serif;-inkscape-font-specification:sans-serif;letter-spacing:0px;word-spacing:0px;fill:#0000ff;stroke:#0000ff;stroke-width:0.264583"
       x="-35.563179"
       y="541.58728"
       id="text95143-0"><tspan
         sodipodi:role="line"
         id="tspan95141-4"
         style="fill:#0000ff;stroke:#0000ff;stroke-width:0.264583"
         x="-35.563179"
         y="541.58728">Vcc</tspan></text>
    <path
       style="fill:#0000ff;stroke:#0000ff;stroke-width:0.9;stroke-linecap:butt;stroke-linejoin:miter;stroke-miterlimit:4;stroke-dasharray:none;stroke-opacity:1"
       d="m -24.732611,557.72566 0.0957,-14.84831"
       id="path161112-8" />
    <path
       style="fill:#0000ff;stroke:#0000ff;stroke-width:0.9;stroke-linecap:round;stroke-linejoin:miter;stroke-miterlimit:4;stroke-dasharray:none;stroke-opacity:1"
       d="m -24.817681,603.84345 0.0964,-10.42121"
       id="path161112-8-7" />
    <path
       style="fill:#0000ff;stroke:#0000ff;stroke-width:0.9;stroke-linecap:round;stroke-linejoin:miter;stroke-miterlimit:4;stroke-dasharray:none;stroke-opacity:1"
       d="m -24.818191,585.03608 0.0957,-11.92455"
       id="path161112-8-7-2" />
    <path
       style="fill:#0000ff;stroke:#0000ff;stroke-width:0.9;stroke-linecap:round;stroke-linejoin:miter;stroke-miterlimit:4;stroke-dasharray:none;stroke-opacity:1"
       d="m -24.823331,593.42224 -4.66044,-7.03565"
       id="path161112-8-7-26" />
    <path
       style="fill:none;stroke:#000000;stroke-width:0.9;stroke-linecap:round;stroke-linejoin:miter;stroke-miterlimit:4;stroke-dasharray:none;stroke-opacity:1"
       d="m 31.668149,529.59005 66.49948,-0.184 h -0.17259"
       id="path161561-8"
       sodipodi:nodetypes="ccc" />
    <path
       style="fill:none;stroke:#000000;stroke-width:0.9;stroke-linecap:round;stroke-linejoin:miter;stroke-miterlimit:4;stroke-dasharray:none;stroke-opacity:1"
       d="m 31.840799,578.42007 66.49966,-0.0949 -0.17259,-2.3e-4"
       id="path161561-9-5"
       sodipodi:nodetypes="ccc" />
    <path
       style="fill:#0000ff;stroke:#0000ff;stroke-width:0.9;stroke-linecap:round;stroke-linejoin:miter;stroke-miterlimit:4;stroke-dasharray:none;stroke-opacity:1"
       d="m -24.452651,578.32782 53.98953,-0.0948 -0.14013,-2.4e-4"
       id="path161561-9-1"
       sodipodi:nodetypes="ccc" />
    <path
       style="fill:none;stroke:#000000;stroke-width:0.9;stroke-linecap:butt;stroke-linejoin:miter;stroke-miterlimit:4;stroke-dasharray:none;stroke-opacity:1"
       d="M 69.900035,539.15357 H 97.870059"
       id="path162064-0" />
    <path
       style="fill:none;stroke:#000000;stroke-width:0.9;stroke-linecap:round;stroke-linejoin:miter;stroke-miterlimit:4;stroke-dasharray:none;stroke-opacity:1"
       d="m 167.51203,541.74607 h 1.717"
       id="path162064-26-6" />
    <path
       style="fill:none;stroke:#000000;stroke-width:0.9;stroke-linecap:butt;stroke-linejoin:miter;stroke-miterlimit:4;stroke-dasharray:none;stroke-opacity:1"
       d="M 70.104521,569.2509 H 98.074549"
       id="path162064-2-4" />
    <path
       style="fill:none;stroke:#000000;stroke-width:0.9;stroke-linecap:butt;stroke-linejoin:miter;stroke-miterlimit:4;stroke-dasharray:none;stroke-opacity:1"
       d="m 170.31667,566.40698 h 21.44802"
       id="path162497-6" />
    <path
       style="fill:none;stroke:#000000;stroke-width:0.836658;stroke-linecap:butt;stroke-linejoin:miter;stroke-miterlimit:4;stroke-dasharray:none;stroke-opacity:1"
       d="m 219.34778,566.36369 h 18.53525"
       id="path162497-9-2" />
    <path
       style="fill:none;stroke:#000000;stroke-width:0.9;stroke-linecap:butt;stroke-linejoin:miter;stroke-miterlimit:4;stroke-dasharray:none;stroke-opacity:1"
       d="m 155.71908,493.97516 v 37.21182"
       id="path162756-5" />
    <path
       style="fill:none;stroke:#000000;stroke-width:0.9;stroke-linecap:butt;stroke-linejoin:miter;stroke-miterlimit:4;stroke-dasharray:none;stroke-opacity:1"
       d="m 155.75316,495.09133 v 36.34984"
       id="path162756-0-8" />
    <path
       style="fill:none;stroke:#000000;stroke-width:0.9;stroke-linecap:butt;stroke-linejoin:miter;stroke-miterlimit:4;stroke-dasharray:none;stroke-opacity:1"
       d="m 83.939971,493.85801 v 45.53007"
       id="path162756-6-6" />
    <path
       style="fill:none;stroke:#000000;stroke-width:0.9;stroke-linecap:butt;stroke-linejoin:miter;stroke-miterlimit:4;stroke-dasharray:none;stroke-opacity:1"
       d="M 206.90274,515.03235 V 493.90829"
       id="path162948-2" />
    <path
       style="fill:none;stroke:#000000;stroke-width:0.9;stroke-linecap:butt;stroke-linejoin:miter;stroke-miterlimit:4;stroke-dasharray:none;stroke-opacity:1"
       d="m 180.82638,566.20717 v -38.47482 l 15.8921,0.0409"
       id="path163063-8"
       sodipodi:nodetypes="ccc" />
    <path
       style="fill:none;stroke:#000000;stroke-width:0.9;stroke-linecap:round;stroke-linejoin:round;stroke-miterlimit:4;stroke-dasharray:none;stroke-opacity:1"
       d="m 118.86675,534.01942 h 13.50287 v 7.42955 l 11.56426,0.0838"
       id="path163439-4" />
    <path
       style="fill:none;stroke:#000000;stroke-width:0.9;stroke-linecap:round;stroke-linejoin:round;stroke-miterlimit:4;stroke-dasharray:none;stroke-opacity:1"
       d="m 118.86675,573.34937 h 13.50287 v -7.42955 l 11.56426,-0.0838"
       id="path163439-6-7" />
    <circle
       style="fill:#0000ff;fill-opacity:1;stroke:#0000ff;stroke-width:0.81419;stroke-miterlimit:4;stroke-dasharray:none"
       id="path64955-8-0"
       cx="-24.800606"
       cy="578.32385"
       r="1.0169374" />
    <path
       style="fill:#0000ff;stroke:#0000ff;stroke-width:0.9;stroke-linecap:round;stroke-linejoin:miter;stroke-miterlimit:4;stroke-dasharray:none;stroke-opacity:1"
       d="m -26.952221,506.16317 h 5.74729"
       id="path72774-1-6" />
    <path
       style="fill:#0000ff;stroke:#0000ff;stroke-width:0.9;stroke-linecap:round;stroke-linejoin:miter;stroke-miterlimit:4;stroke-dasharray:none;stroke-opacity:1"
       d="m -26.181831,507.59515 h 4.2065"
       id="path72776-7-1" />
    <path
       style="fill:#0000ff;stroke:#0000ff;stroke-width:0.9;stroke-linecap:round;stroke-linejoin:miter;stroke-miterlimit:4;stroke-dasharray:none;stroke-opacity:1"
       d="m -25.367261,509.0271 h 2.57737"
       id="path72778-2-5" />
    <path
       style="fill:#0000ff;stroke:#0000ff;stroke-width:0.9;stroke-linecap:round;stroke-linejoin:miter;stroke-miterlimit:4;stroke-dasharray:none;stroke-opacity:1"
       d="m -24.078581,506.12166 v -2.52697"
       id="path72911-7-9" />
    <path
       style="fill:none;stroke:#0000ff;stroke-width:0.9;stroke-linecap:round;stroke-linejoin:round;stroke-miterlimit:4;stroke-dasharray:none;stroke-opacity:1"
       d="m -23.982861,472.87137 5.3e-4,-1.92855 -1.77615,-1.23113 3.29351,-1.83124 -3.27374,-1.59555 3.24996,-1.78027 -3.28615,-1.69252 3.29487,-1.62528 -1.48013,-1.20791 -0.0337,-2.50267"
       id="path69421-49-4"
       sodipodi:nodetypes="cccccccccc" />
    <circle
       style="fill:#0000ff;fill-opacity:1;stroke:#0000ff;stroke-width:0.9;stroke-miterlimit:4;stroke-dasharray:none"
       id="path64955-6-5-9"
       cx="-23.755333"
       cy="441.43802"
       r="1.1241155" />
    <text
       xml:space="preserve"
       style="font-size:4.23333px;line-height:1.25;font-family:sans-serif;-inkscape-font-specification:sans-serif;letter-spacing:0px;word-spacing:0px;fill:#0000ff;stroke:#0000ff;stroke-width:0.264583"
       x="-34.824425"
       y="441.33801"
       id="text95143-0-0"><tspan
         sodipodi:role="line"
         id="tspan95141-4-9"
         style="fill:#0000ff;stroke:#0000ff;stroke-width:0.264583"
         x="-34.824425"
         y="441.33801">Vcc      5V</tspan></text>
    <path
       style="fill:#0000ff;stroke:#0000ff;stroke-width:0.9;stroke-linecap:butt;stroke-linejoin:miter;stroke-miterlimit:4;stroke-dasharray:none;stroke-opacity:1"
       d="m -23.993861,457.47625 0.0957,-14.84831"
       id="path161112-8-1" />
    <path
       style="fill:#0000ff;stroke:#0000ff;stroke-width:0.9;stroke-linecap:round;stroke-linejoin:miter;stroke-miterlimit:4;stroke-dasharray:none;stroke-opacity:1"
       d="m -24.078931,503.59404 0.0964,-10.42121"
       id="path161112-8-7-7" />
    <path
       style="fill:#0000ff;stroke:#0000ff;stroke-width:0.9;stroke-linecap:round;stroke-linejoin:miter;stroke-miterlimit:4;stroke-dasharray:none;stroke-opacity:1"
       d="m -24.079441,484.78667 0.0957,-11.92455"
       id="path161112-8-7-2-7" />
    <path
       style="fill:#0000ff;stroke:#0000ff;stroke-width:0.9;stroke-linecap:round;stroke-linejoin:miter;stroke-miterlimit:4;stroke-dasharray:none;stroke-opacity:1"
       d="m -24.084581,493.17283 -4.66044,-7.03565"
       id="path161112-8-7-26-1" />
    <circle
       style="fill:#0000ff;fill-opacity:1;stroke:#0000ff;stroke-width:0.81419;stroke-miterlimit:4;stroke-dasharray:none"
       id="path64955-8-0-1"
       cx="-24.061852"
       cy="478.07458"
       r="1.0169374" />
    <path
       style="fill:none;stroke:#0000ff;stroke-width:0.9;stroke-linecap:butt;stroke-linejoin:miter;stroke-miterlimit:4;stroke-dasharray:none;stroke-opacity:1"
       d="M -24.053721,478.21266 H 155.78808 v 13.50442"
       id="path168764" />
    <g
       id="g175141"
       transform="translate(11.167229,193.03685)">
      <text
         xml:space="preserve"
         style="font-size:5.64444px;line-height:1.25;font-family:sans-serif;-inkscape-font-specification:sans-serif;letter-spacing:0px;word-spacing:0px;fill:#0000ff;stroke-width:0.264583"
         x="-50.635277"
         y="299.00754"
         id="text172541"><tspan
           sodipodi:role="line"
           id="tspan172539"
           style="fill:#0000ff;stroke-width:0.264583"
           x="-50.635277"
           y="299.00754">R</tspan></text>
      <circle
         style="opacity:1;fill:none;fill-opacity:1;stroke:#0000ff;stroke-width:0.5;stroke-linecap:round;stroke-linejoin:round;stroke-miterlimit:4;stroke-dasharray:none;stroke-dashoffset:0"
         id="path173349"
         cx="-48.478649"
         cy="296.95013"
         r="5.229651" />
    </g>
    <g
       id="g178159"
       transform="translate(16.823001,2.0822823)">
      <path
         sodipodi:type="star"
         style="opacity:1;fill:none;fill-opacity:1;stroke:#0000ff;stroke-width:2.94709;stroke-linecap:round;stroke-linejoin:round;stroke-miterlimit:4;stroke-dasharray:none;stroke-dashoffset:0"
         id="path177789"
         inkscape:flatsided="false"
         sodipodi:sides="3"
         sodipodi:cx="892.45941"
         sodipodi:cy="2231.3889"
         sodipodi:r1="15.007423"
         sodipodi:r2="7.5037117"
         sodipodi:arg1="1.5707963"
         sodipodi:arg2="2.6179939"
         inkscape:rounded="0"
         inkscape:randomized="0"
         d="m 892.45941,2246.3963 -6.4984,-11.2555 -6.49841,-11.2556 12.99681,0 12.99681,0 -6.4984,11.2556 z"
         transform="matrix(0.30538584,0,0,0.30538584,-35.845733,-91.697163)"
         inkscape:transform-center-x="5.5251937e-06"
         inkscape:transform-center-y="1.1457508" />
      <path
         style="fill:#0000ff;stroke:#0000ff;stroke-width:0.9;stroke-linecap:round;stroke-linejoin:round;stroke-miterlimit:4;stroke-dasharray:none;stroke-opacity:1"
         d="m 232.42137,594.89839 h 8.73864"
         id="path177904" />
    </g>
    <path
       style="fill:#0000ff;stroke:#0000ff;stroke-width:0.4;stroke-linecap:butt;stroke-linejoin:miter;stroke-opacity:1;marker-end:url(#Arrow2Mend);stroke-miterlimit:4;stroke-dasharray:none"
       d="m 258.47696,593.74536 2.99787,3.65016"
       id="path178194" />
    <path
       style="fill:#0000ff;stroke:#0000ff;stroke-width:0.4;stroke-linecap:butt;stroke-linejoin:miter;stroke-opacity:1;marker-end:url(#Arrow2Mend-0);stroke-miterlimit:4;stroke-dasharray:none"
       d="m 260.23689,592.48741 2.99787,3.65016"
       id="path178194-1"
       inkscape:transform-center-x="0.6543042"
       inkscape:transform-center-y="0.36638603" />
    <path
       style="fill:none;stroke:#0000ff;stroke-width:0.898377;stroke-linecap:butt;stroke-linejoin:round;stroke-miterlimit:4;stroke-dasharray:none;stroke-opacity:1"
       d="m 240.44594,566.55787 h 13.19832 v 2.67152"
       id="path178893" />
    <path
       style="fill:none;stroke:#0000ff;stroke-width:0.9;stroke-linecap:butt;stroke-linejoin:miter;stroke-opacity:1;stroke-miterlimit:4;stroke-dasharray:none"
       d="m 253.65443,584.47312 v 5.10749"
       id="path178895" />
    <path
       style="fill:none;stroke:#0000ff;stroke-width:0.9;stroke-linecap:butt;stroke-linejoin:miter;stroke-miterlimit:4;stroke-dasharray:none;stroke-opacity:1"
       d="m 253.61369,596.40273 v 7.31547"
       id="path178897" />
    <text
       xml:space="preserve"
       style="font-size:5.64444px;line-height:1.25;font-family:sans-serif;-inkscape-font-specification:sans-serif;letter-spacing:0px;word-spacing:0px;stroke-width:0.264583;fill:#0000ff"
       x="256.57513"
       y="578.33557"
       id="text181267"><tspan
         sodipodi:role="line"
         id="tspan181265"
         style="stroke-width:0.264583;fill:#0000ff"
         x="256.57513"
         y="578.33557">68Ω</tspan></text>
    <text
       xml:space="preserve"
       style="font-size:6.35px;line-height:1.25;font-family:sans-serif;-inkscape-font-specification:sans-serif;letter-spacing:0px;word-spacing:0px;stroke-width:0.264583;fill:#ff0000"
       x="28.902964"
       y="436.02179"
       id="text191475"><tspan
         sodipodi:role="line"
         id="tspan191473"
         style="font-size:6.35px;stroke-width:0.264583;fill:#ff0000"
         x="28.902964"
         y="436.02179">555 - montage bistable (2 états stables, en appuyant sur chaque bouton )</tspan></text>
  </g>
</svg>
